[gd_scene format=2]

[node name="Spatial" type="Spatial"]

[node name="OmniLight" type="OmniLight" parent="."]
light_color = Color( 0.027451, 0.945098, 0.752941, 1 )
omni_range = 2.0

[node name="OmniLight2" type="OmniLight" parent="."]
transform = Transform( 1, 0, 0, 0, 1, 0, 0, 0, 1, 0, 1, 0 )
light_color = Color( 0.027451, 0.945098, 0.752941, 1 )
omni_range = 2.0
