[gd_scene load_steps=3 format=2]

[ext_resource path="res://addons/sensors/camera_sensor.gd" type="Script" id=1]

[sub_resource type="BoxShape" id=1]
extents = Vector3( 0.123594, 0.10553, 0.0790959 )

[node name="camera_sensor" type="Spatial"]
script = ExtResource( 1 )

[node name="Viewport" type="Viewport" parent="."]
size = Vector2( 8, 2 )
hdr = false
usage = 3
render_target_v_flip = true
render_target_update_mode = 3

[node name="camera" type="Camera" parent="Viewport"]
keep_aspect = 0
fov = 50.0
far = 500.0

[node name="Body" type="RigidBody" parent="."]

[node name="CollisionShape" type="CollisionShape" parent="Body"]
transform = Transform( 0.1, 1.56319e-14, -1.40902e-09, -1.56319e-14, 0.1, 5.375e-15, 1.40902e-09, -5.375e-15, 0.1, 0.00381981, -0.00534323, 0.00448044 )
shape = SubResource( 1 )
disabled = true
