[gd_scene load_steps=8 format=2]

[ext_resource path="res://assets/Road/Corner.gd" type="Script" id=1]
[ext_resource path="res://assets/highligthShader.tres" type="Material" id=2]
[ext_resource path="res://assets/new_models/roads/Material_004.material" type="Material" id=3]
[ext_resource path="res://assets/new_models/roads/asphalt.material" type="Material" id=4]

[sub_resource type="SpatialMaterial" id=1]
albedo_color = Color( 1, 0.913725, 0, 1 )
transmission_enabled = true
transmission = Color( 1, 0.74902, 0, 1 )

[sub_resource type="SpatialMaterial" id=2]
resource_local_to_scene = true
next_pass = ExtResource( 2 )
albedo_color = Color( 0.0745098, 0.0705882, 0.0705882, 1 )

[sub_resource type="ArrayMesh" id=3]
resource_name = "road_right_Plane017"
surfaces/0 = {
"aabb": AABB( -0.375, 0, -0.375, 0.875, 1e-05, 0.87501 ),
"array_data": PoolByteArray( 255, 255, 191, 190, 0, 0, 0, 0, 0, 0, 0, 63, 0, 127, 129, 63, 179, 66, 200, 196, 0, 0, 0, 63, 0, 0, 0, 0, 255, 255, 191, 190, 0, 127, 127, 127, 179, 66, 0, 60, 255, 255, 191, 62, 0, 0, 0, 0, 255, 255, 191, 190, 0, 127, 127, 127, 179, 66, 88, 53, 254, 255, 127, 190, 0, 0, 0, 0, 0, 0, 0, 63, 0, 127, 129, 63, 94, 65, 200, 196, 253, 255, 255, 189, 0, 0, 0, 0, 0, 0, 0, 63, 0, 127, 129, 63, 9, 64, 200, 196, 0, 0, 0, 50, 0, 0, 0, 0, 0, 0, 0, 63, 0, 127, 129, 63, 86, 61, 200, 196, 0, 0, 0, 62, 0, 0, 0, 0, 0, 0, 0, 63, 0, 127, 129, 63, 84, 57, 200, 196, 255, 255, 127, 62, 0, 0, 0, 0, 0, 0, 0, 63, 0, 127, 129, 63, 0, 0, 200, 196, 254, 255, 127, 62, 0, 0, 0, 0, 255, 255, 191, 62, 0, 127, 129, 63, 0, 0, 29, 196, 253, 255, 255, 61, 0, 0, 0, 0, 255, 255, 191, 62, 0, 127, 129, 63, 84, 57, 29, 196, 253, 255, 255, 61, 0, 0, 0, 0, 255, 255, 191, 62, 0, 127, 129, 64, 84, 57, 29, 196, 0, 0, 0, 178, 0, 0, 0, 0, 255, 255, 191, 62, 0, 127, 129, 64, 86, 61, 29, 196, 0, 0, 0, 178, 0, 0, 0, 0, 255, 255, 191, 62, 0, 127, 129, 63, 86, 61, 29, 196, 0, 0, 0, 190, 0, 0, 0, 0, 255, 255, 191, 62, 0, 127, 129, 64, 9, 64, 29, 196, 0, 0, 0, 190, 0, 0, 0, 0, 255, 255, 191, 62, 0, 127, 129, 63, 9, 64, 29, 196, 255, 255, 127, 190, 0, 0, 0, 0, 255, 255, 191, 62, 0, 127, 129, 66, 94, 65, 29, 196, 255, 255, 127, 190, 0, 0, 0, 0, 255, 255, 191, 62, 0, 127, 129, 63, 94, 65, 29, 196, 0, 0, 0, 63, 0, 0, 0, 0, 254, 255, 127, 62, 0, 127, 127, 127, 0, 0, 0, 60, 0, 0, 0, 63, 0, 0, 0, 0, 253, 255, 255, 61, 0, 127, 127, 127, 84, 57, 0, 60, 0, 0, 0, 63, 0, 0, 0, 0, 0, 0, 0, 178, 0, 127, 127, 127, 86, 61, 0, 60, 0, 0, 0, 63, 0, 0, 0, 0, 0, 0, 0, 190, 0, 127, 127, 127, 9, 64, 0, 60, 0, 0, 0, 63, 0, 0, 0, 0, 255, 255, 127, 190, 0, 127, 127, 127, 94, 65, 0, 60, 255, 255, 191, 62, 0, 0, 0, 0, 254, 255, 127, 62, 0, 127, 127, 127, 0, 0, 88, 53, 255, 255, 191, 62, 0, 0, 0, 0, 253, 255, 255, 61, 0, 127, 129, 126, 84, 57, 88, 53, 255, 255, 191, 62, 0, 0, 0, 0, 0, 0, 0, 178, 0, 127, 129, 126, 86, 61, 88, 53, 255, 255, 191, 62, 0, 0, 0, 0, 0, 0, 0, 190, 0, 127, 129, 126, 9, 64, 88, 53, 255, 255, 191, 62, 0, 0, 0, 0, 255, 255, 127, 190, 0, 127, 129, 125, 94, 65, 88, 53, 0, 0, 192, 190, 0, 0, 0, 0, 255, 255, 191, 62, 0, 127, 129, 63, 179, 66, 29, 196, 0, 0, 192, 190, 0, 0, 0, 0, 255, 255, 191, 62, 0, 127, 129, 63, 179, 66, 29, 196, 150, 137, 191, 190, 0, 0, 0, 0, 111, 40, 173, 62, 0, 127, 129, 63, 179, 66, 240, 195, 150, 137, 191, 190, 0, 0, 0, 0, 111, 40, 173, 62, 0, 127, 129, 66, 179, 66, 240, 195, 164, 38, 190, 190, 0, 0, 0, 0, 138, 92, 154, 62, 0, 127, 129, 68, 179, 66, 167, 195, 2, 216, 187, 190, 0, 0, 0, 0, 207, 167, 135, 62, 0, 127, 129, 70, 179, 66, 94, 195, 28, 159, 184, 190, 0, 0, 0, 0, 168, 43, 106, 62, 0, 127, 129, 74, 179, 66, 29, 195, 28, 159, 184, 190, 0, 0, 0, 0, 168, 43, 106, 62, 0, 127, 129, 72, 179, 66, 29, 195, 242, 125, 180, 190, 0, 0, 0, 0, 26, 100, 69, 62, 0, 127, 129, 74, 179, 66, 212, 194, 242, 125, 180, 190, 0, 0, 0, 0, 26, 100, 69, 62, 0, 127, 129, 76, 179, 66, 212, 194, 16, 119, 175, 190, 0, 0, 0, 0, 185, 15, 33, 62, 0, 127, 129, 77, 179, 66, 139, 194, 140, 141, 169, 190, 0, 0, 0, 0, 124, 137, 250, 61, 0, 127, 129, 79, 179, 66, 66, 194, 12, 197, 162, 190, 0, 0, 0, 0, 172, 50, 180, 61, 0, 127, 129, 81, 179, 66, 1, 194, 198, 33, 155, 190, 0, 0, 0, 0, 24, 141, 94, 61, 0, 127, 129, 83, 179, 66, 184, 193, 100, 168, 146, 190, 0, 0, 0, 0, 0, 189, 175, 60, 0, 127, 129, 84, 179, 66, 111, 193, 38, 94, 137, 190, 0, 0, 0, 0, 192, 75, 45, 188, 0, 127, 129, 86, 179, 66, 46, 193, 152, 145, 126, 190, 0, 0, 0, 0, 24, 182, 42, 189, 0, 127, 129, 88, 179, 66, 229, 192, 8, 221, 104, 190, 0, 0, 0, 0, 124, 254, 146, 189, 0, 127, 129, 89, 179, 66, 155, 192, 8, 172, 81, 190, 0, 0, 0, 0, 160, 109, 206, 189, 0, 127, 129, 91, 179, 66, 81, 192, 228, 12, 57, 190, 0, 0, 0, 0, 230, 193, 3, 190, 0, 127, 129, 93, 179, 66, 16, 192, 224, 14, 31, 190, 0, 0, 0, 0, 214, 14, 31, 190, 0, 127, 129, 94, 179, 66, 142, 191, 224, 193, 3, 190, 0, 0, 0, 0, 238, 12, 57, 190, 0, 127, 129, 96, 179, 66, 252, 190, 136, 109, 206, 189, 0, 0, 0, 0, 18, 172, 81, 190, 0, 127, 129, 97, 179, 66, 106, 190, 144, 254, 146, 189, 0, 0, 0, 0, 2, 221, 104, 190, 0, 127, 129, 99, 179, 66, 232, 189, 64, 182, 42, 189, 0, 0, 0, 0, 150, 145, 126, 190, 0, 127, 129, 100, 179, 66, 86, 189, 64, 75, 45, 188, 0, 0, 0, 0, 41, 94, 137, 190, 0, 127, 129, 102, 179, 66, 196, 188, 96, 189, 175, 60, 0, 0, 0, 0, 103, 168, 146, 190, 0, 127, 129, 104, 179, 66, 66, 188, 232, 140, 94, 61, 0, 0, 0, 0, 195, 33, 155, 190, 0, 127, 129, 105, 179, 66, 96, 187, 192, 50, 180, 61, 0, 0, 0, 0, 15, 197, 162, 190, 0, 127, 129, 107, 179, 66, 60, 186, 148, 137, 250, 61, 0, 0, 0, 0, 143, 141, 169, 190, 0, 127, 129, 109, 179, 66, 24, 185, 174, 15, 33, 62, 0, 0, 0, 0, 17, 119, 175, 190, 0, 127, 129, 111, 179, 66, 20, 184, 37, 100, 69, 62, 0, 0, 0, 0, 245, 125, 180, 190, 0, 127, 129, 114, 179, 66, 224, 181, 37, 100, 69, 62, 0, 0, 0, 0, 245, 125, 180, 190, 0, 127, 129, 112, 179, 66, 224, 181, 179, 43, 106, 62, 0, 0, 0, 0, 31, 159, 184, 190, 0, 127, 129, 114, 179, 66, 32, 179, 179, 43, 106, 62, 0, 0, 0, 0, 31, 159, 184, 190, 0, 127, 129, 116, 179, 66, 32, 179, 212, 167, 135, 62, 0, 0, 0, 0, 5, 216, 187, 190, 0, 127, 129, 117, 179, 66, 0, 174, 131, 92, 154, 62, 0, 0, 0, 0, 165, 38, 190, 190, 0, 127, 129, 120, 179, 66, 64, 42, 116, 40, 173, 62, 0, 0, 0, 0, 151, 137, 191, 190, 0, 127, 129, 124, 179, 66, 32, 50, 188, 19, 128, 62, 0, 0, 0, 0, 18, 220, 188, 62, 0, 127, 129, 65, 0, 0, 240, 195, 240, 78, 0, 62, 0, 0, 0, 0, 37, 184, 185, 62, 0, 127, 129, 63, 84, 57, 240, 195, 240, 78, 0, 62, 0, 0, 0, 0, 37, 184, 185, 62, 0, 127, 129, 67, 84, 57, 240, 195, 0, 210, 236, 57, 0, 0, 0, 0, 56, 148, 182, 62, 0, 127, 129, 65, 86, 61, 240, 195, 0, 210, 236, 57, 0, 0, 0, 0, 56, 148, 182, 62, 0, 127, 129, 67, 86, 61, 240, 195, 60, 196, 254, 189, 0, 0, 0, 0, 74, 112, 179, 62, 0, 127, 129, 65, 9, 64, 240, 195, 60, 196, 254, 189, 0, 0, 0, 0, 74, 112, 179, 62, 0, 127, 129, 67, 9, 64, 240, 195, 165, 58, 127, 190, 0, 0, 0, 0, 92, 76, 176, 62, 0, 127, 129, 66, 94, 65, 240, 195, 165, 58, 127, 190, 0, 0, 0, 0, 92, 76, 176, 62, 0, 127, 129, 68, 94, 65, 240, 195, 228, 78, 128, 62, 0, 0, 0, 0, 22, 186, 185, 62, 0, 127, 129, 67, 0, 0, 167, 195, 146, 59, 1, 62, 0, 0, 0, 0, 45, 116, 179, 62, 0, 127, 129, 69, 84, 57, 167, 195, 146, 59, 1, 62, 0, 0, 0, 0, 45, 116, 179, 62, 0, 127, 129, 69, 84, 57, 167, 195, 192, 173, 236, 58, 0, 0, 0, 0, 68, 46, 173, 62, 0, 127, 129, 71, 86, 61, 167, 195, 192, 173, 236, 58, 0, 0, 0, 0, 68, 46, 173, 62, 0, 127, 129, 68, 86, 61, 167, 195, 183, 17, 251, 189, 0, 0, 0, 0, 91, 232, 166, 62, 0, 127, 129, 69, 9, 64, 167, 195, 18, 235, 124, 190, 0, 0, 0, 0, 114, 162, 160, 62, 0, 127, 129, 70, 94, 65, 167, 195, 84, 177, 128, 62, 0, 0, 0, 0, 247, 155, 182, 62, 0, 127, 129, 70, 0, 0, 94, 195, 82, 197, 2, 62, 0, 0, 0, 0, 239, 55, 173, 62, 0, 127, 129, 69, 84, 57, 94, 195, 82, 197, 2, 62, 0, 0, 0, 0, 239, 55, 173, 62, 0, 127, 129, 72, 84, 57, 94, 195, 144, 255, 132, 59, 0, 0, 0, 0, 231, 211, 163, 62, 0, 127, 129, 71, 86, 61, 94, 195, 144, 255, 132, 59, 0, 0, 0, 0, 231, 211, 163, 62, 0, 127, 129, 73, 86, 61, 94, 195, 178, 234, 244, 189, 0, 0, 0, 0, 223, 111, 154, 62, 0, 127, 129, 73, 9, 64, 94, 195, 178, 234, 244, 189, 0, 0, 0, 0, 223, 111, 154, 62, 0, 127, 129, 71, 9, 64, 94, 195, 174, 18, 121, 190, 0, 0, 0, 0, 215, 11, 145, 62, 0, 127, 129, 72, 94, 65, 94, 195, 208, 58, 129, 62, 0, 0, 0, 0, 162, 131, 179, 62, 0, 127, 129, 72, 0, 0, 29, 195, 66, 235, 4, 62, 0, 0, 0, 0, 70, 7, 167, 62, 0, 127, 129, 74, 84, 57, 29, 195, 112, 28, 236, 59, 0, 0, 0, 0, 234, 138, 154, 62, 0, 127, 129, 71, 86, 61, 29, 195, 112, 28, 236, 59, 0, 0, 0, 0, 234, 138, 154, 62, 0, 127, 129, 74, 86, 61, 29, 195, 247, 82, 236, 189, 0, 0, 0, 0, 141, 14, 142, 62, 0, 127, 129, 74, 9, 64, 29, 195, 247, 82, 236, 189, 0, 0, 0, 0, 141, 14, 142, 62, 0, 127, 129, 74, 9, 64, 29, 195, 218, 179, 115, 190, 0, 0, 0, 0, 48, 146, 129, 62, 0, 127, 129, 75, 94, 65, 29, 195, 218, 179, 115, 190, 0, 0, 0, 0, 48, 146, 129, 62, 0, 127, 129, 74, 94, 65, 29, 195, 2, 235, 129, 62, 0, 0, 0, 0, 1, 115, 176, 62, 0, 127, 129, 75, 0, 0, 212, 194, 8, 172, 7, 62, 0, 0, 0, 0, 3, 230, 160, 62, 0, 127, 129, 76, 84, 57, 212, 194, 8, 172, 7, 62, 0, 0, 0, 0, 3, 230, 160, 62, 0, 127, 129, 76, 84, 57, 212, 194, 208, 32, 56, 60, 0, 0, 0, 0, 6, 89, 145, 62, 0, 127, 129, 78, 86, 61, 212, 194, 208, 32, 56, 60, 0, 0, 0, 0, 6, 89, 145, 62, 0, 127, 129, 75, 86, 61, 212, 194, 220, 79, 225, 189, 0, 0, 0, 0, 8, 204, 129, 62, 0, 127, 129, 76, 9, 64, 212, 194, 233, 209, 108, 190, 0, 0, 0, 0, 21, 126, 100, 62, 0, 127, 129, 76, 94, 65, 212, 194, 233, 209, 108, 190, 0, 0, 0, 0, 21, 126, 100, 62, 0, 127, 129, 77, 94, 65, 212, 194, 124, 193, 130, 62, 0, 0, 0, 0, 249, 107, 173, 62, 0, 127, 129, 77, 0, 0, 139, 194, 243, 5, 11, 62, 0, 0, 0, 0, 243, 215, 154, 62, 0, 127, 129, 77, 84, 57, 139, 194, 243, 5, 11, 62, 0, 0, 0, 0, 243, 215, 154, 62, 0, 127, 129, 79, 84, 57, 139, 194, 112, 71, 132, 60, 0, 0, 0, 0, 237, 67, 136, 62, 0, 127, 129, 78, 86, 61, 139, 194, 112, 71, 132, 60, 0, 0, 0, 0, 237, 67, 136, 62, 0, 127, 129, 76, 86, 61, 139, 194, 46, 232, 211, 189, 0, 0, 0, 0, 207, 95, 107, 62, 0, 127, 129, 80, 9, 64, 139, 194, 46, 232, 211, 189, 0, 0, 0, 0, 207, 95, 107, 62, 0, 127, 129, 77, 9, 64, 139, 194, 28, 113, 100, 190, 0, 0, 0, 0, 196, 55, 70, 62, 0, 127, 129, 79, 94, 65, 139, 194, 189, 189, 131, 62, 0, 0, 0, 0, 100, 112, 170, 62, 0, 127, 129, 79, 0, 0, 66, 194, 246, 246, 14, 62, 0, 0, 0, 0, 201, 224, 148, 62, 0, 127, 129, 79, 84, 57, 66, 194, 246, 246, 14, 62, 0, 0, 0, 0, 201, 224, 148, 62, 0, 127, 129, 81, 84, 57, 66, 194, 148, 147, 179, 60, 0, 0, 0, 0, 93, 162, 126, 62, 0, 127, 129, 80, 86, 61, 66, 194, 34, 36, 196, 189, 0, 0, 0, 0, 40, 131, 83, 62, 0, 127, 129, 81, 9, 64, 66, 194, 34, 36, 196, 189, 0, 0, 0, 0, 40, 131, 83, 62, 0, 127, 129, 79, 9, 64, 66, 194, 148, 150, 90, 190, 0, 0, 0, 0, 243, 99, 40, 62, 0, 127, 129, 81, 94, 65, 66, 194, 40, 223, 132, 62, 0, 0, 0, 0, 28, 130, 167, 62, 0, 127, 129, 81, 0, 0, 1, 194, 162, 124, 19, 62, 0, 0, 0, 0, 57, 4, 143, 62, 0, 127, 129, 80, 84, 57, 1, 194, 162, 124, 19, 62, 0, 0, 0, 0, 57, 4, 143, 62, 0, 127, 129, 82, 84, 57, 1, 194, 156, 215, 233, 60, 0, 0, 0, 0, 171, 12, 109, 62, 0, 127, 129, 81, 86, 61, 1, 194, 156, 215, 233, 60, 0, 0, 0, 0, 171, 12, 109, 62, 0, 127, 129, 82, 86, 61, 1, 194, 119, 13, 178, 189, 0, 0, 0, 0, 228, 16, 60, 62, 0, 127, 129, 82, 9, 64, 1, 194, 119, 13, 178, 189, 0, 0, 0, 0, 228, 16, 60, 62, 0, 127, 129, 82, 9, 64, 1, 194, 106, 72, 79, 190, 0, 0, 0, 0, 29, 21, 11, 62, 0, 127, 129, 82, 94, 65, 1, 194, 9, 37, 134, 62, 0, 0, 0, 0, 240, 162, 164, 62, 0, 127, 129, 83, 0, 0, 184, 193, 37, 148, 24, 62, 0, 0, 0, 0, 225, 69, 137, 62, 0, 127, 129, 83, 84, 57, 184, 193, 228, 120, 19, 61, 0, 0, 0, 0, 163, 209, 91, 62, 0, 127, 129, 83, 86, 61, 184, 193, 102, 175, 157, 189, 0, 0, 0, 0, 132, 23, 37, 62, 0, 127, 129, 83, 9, 64, 184, 193, 160, 141, 66, 190, 0, 0, 0, 0, 202, 186, 220, 61, 0, 127, 129, 84, 94, 65, 184, 193, 153, 142, 135, 62, 0, 0, 0, 0, 162, 212, 161, 62, 0, 127, 129, 84, 0, 0, 111, 193, 102, 58, 30, 62, 0, 0, 0, 0, 69, 169, 131, 62, 0, 127, 129, 85, 84, 57, 111, 193, 106, 94, 53, 61, 0, 0, 0, 0, 208, 251, 74, 62, 0, 127, 129, 85, 86, 61, 111, 193, 98, 22, 135, 189, 0, 0, 0, 0, 21, 165, 14, 62, 0, 127, 129, 85, 9, 64, 111, 193, 252, 109, 52, 190, 0, 0, 0, 0, 181, 156, 164, 61, 0, 127, 129, 86, 94, 65, 111, 193, 249, 26, 137, 62, 0, 0, 0, 0, 240, 24, 159, 62, 0, 127, 129, 86, 0, 0, 46, 193, 229, 107, 36, 62, 0, 0, 0, 0, 192, 99, 124, 62, 0, 127, 129, 87, 84, 57, 46, 193, 100, 135, 90, 61, 0, 0, 0, 0, 161, 149, 58, 62, 0, 127, 129, 87, 86, 61, 46, 193, 204, 160, 92, 189, 0, 0, 0, 0, 4, 143, 241, 61, 0, 127, 129, 87, 9, 64, 46, 193, 204, 160, 92, 189, 0, 0, 0, 0, 4, 143, 241, 61, 0, 127, 129, 87, 9, 64, 46, 193, 64, 242, 36, 190, 0, 0, 0, 0, 140, 229, 91, 61, 0, 127, 129, 88, 94, 65, 46, 193, 64, 242, 36, 190, 0, 0, 0, 0, 140, 229, 91, 61, 0, 127, 129, 87, 94, 65, 46, 193, 50, 201, 138, 62, 0, 0, 0, 0, 137, 113, 156, 62, 0, 127, 129, 88, 0, 0, 229, 192, 203, 36, 43, 62, 0, 0, 0, 0, 38, 198, 113, 62, 0, 127, 129, 88, 84, 57, 229, 192, 203, 36, 43, 62, 0, 0, 0, 0, 38, 198, 113, 62, 0, 127, 129, 88, 84, 57, 229, 192, 100, 110, 129, 61, 0, 0, 0, 0, 59, 169, 42, 62, 0, 127, 129, 90, 86, 61, 229, 192, 100, 110, 129, 61, 0, 0, 0, 0, 59, 169, 42, 62, 0, 127, 129, 88, 86, 61, 229, 192, 156, 217, 38, 189, 0, 0, 0, 0, 160, 24, 199, 61, 0, 127, 129, 87, 9, 64, 229, 192, 156, 217, 38, 189, 0, 0, 0, 0, 160, 24, 199, 61, 0, 127, 129, 89, 9, 64, 229, 192, 0, 36, 20, 190, 0, 0, 0, 0, 40, 123, 227, 60, 0, 127, 129, 88, 94, 65, 229, 192, 0, 36, 20, 190, 0, 0, 0, 0, 40, 123, 227, 60, 0, 127, 129, 89, 94, 65, 229, 192, 62, 152, 140, 62, 0, 0, 0, 0, 15, 224, 153, 62, 0, 127, 129, 89, 0, 0, 155, 192, 251, 96, 50, 62, 0, 0, 0, 0, 62, 128, 103, 62, 0, 127, 129, 89, 84, 57, 155, 192, 251, 96, 50, 62, 0, 0, 0, 0, 62, 128, 103, 62, 0, 127, 129, 91, 84, 57, 155, 192, 244, 34, 151, 61, 0, 0, 0, 0, 95, 64, 27, 62, 0, 127, 129, 90, 86, 61, 155, 192, 244, 34, 151, 61, 0, 0, 0, 0, 95, 64, 27, 62, 0, 127, 129, 90, 86, 61, 155, 192, 56, 240, 217, 188, 0, 0, 0, 0, 0, 1, 158, 61, 0, 127, 129, 90, 9, 64, 155, 192, 136, 13, 2, 190, 0, 0, 0, 0, 64, 40, 48, 59, 0, 127, 129, 91, 94, 65, 155, 192, 254, 134, 142, 62, 0, 0, 0, 0, 24, 102, 151, 62, 0, 127, 129, 91, 0, 0, 81, 192, 251, 27, 58, 62, 0, 0, 0, 0, 99, 152, 93, 62, 0, 127, 129, 92, 84, 57, 81, 192, 244, 83, 174, 61, 0, 0, 0, 0, 150, 100, 12, 62, 0, 127, 129, 92, 86, 61, 81, 192, 112, 128, 60, 188, 0, 0, 0, 0, 36, 195, 108, 61, 0, 127, 129, 92, 9, 64, 81, 192, 15, 116, 221, 189, 0, 0, 0, 0, 28, 24, 176, 188, 0, 127, 129, 92, 94, 65, 81, 192, 66, 148, 144, 62, 0, 0, 0, 0, 44, 5, 149, 62, 0, 127, 129, 93, 0, 0, 16, 192, 66, 148, 144, 62, 0, 0, 0, 0, 44, 5, 149, 62, 0, 127, 129, 92, 0, 0, 16, 192, 8, 81, 66, 62, 0, 0, 0, 0, 178, 20, 84, 62, 0, 127, 129, 94, 84, 57, 16, 192, 8, 81, 66, 62, 0, 0, 0, 0, 178, 20, 84, 62, 0, 127, 129, 92, 84, 57, 16, 192, 26, 243, 198, 61, 0, 0, 0, 0, 24, 62, 252, 61, 0, 127, 129, 95, 86, 61, 16, 192, 26, 243, 198, 61, 0, 0, 0, 0, 24, 62, 252, 61, 0, 127, 129, 93, 86, 61, 16, 192, 64, 66, 148, 59, 0, 0, 0, 0, 152, 165, 32, 61, 0, 127, 129, 93, 9, 64, 16, 192, 210, 106, 180, 189, 0, 0, 0, 0, 0, 49, 55, 189, 0, 127, 129, 94, 94, 65, 16, 192, 194, 190, 146, 62, 0, 0, 0, 0, 194, 190, 146, 62, 0, 127, 129, 93, 0, 0, 142, 191, 194, 190, 146, 62, 0, 0, 0, 0, 194, 190, 146, 62, 0, 127, 129, 95, 0, 0, 142, 191, 10, 251, 74, 62, 0, 0, 0, 0, 12, 251, 74, 62, 0, 127, 129, 94, 84, 57, 142, 191, 10, 251, 74, 62, 0, 0, 0, 0, 12, 251, 74, 62, 0, 127, 129, 95, 84, 57, 142, 191, 31, 241, 224, 61, 0, 0, 0, 0, 39, 241, 224, 61, 0, 127, 129, 95, 86, 61, 142, 191, 31, 241, 224, 61, 0, 0, 0, 0, 39, 241, 224, 61, 0, 127, 129, 96, 86, 61, 142, 191, 164, 176, 175, 60, 0, 0, 0, 0, 212, 176, 175, 60, 0, 127, 129, 96, 9, 64, 142, 191, 164, 176, 175, 60, 0, 0, 0, 0, 212, 176, 175, 60, 0, 127, 129, 94, 9, 64, 142, 191, 203, 24, 137, 189, 0, 0, 0, 0, 187, 24, 137, 189, 0, 127, 129, 95, 94, 65, 142, 191, 44, 5, 149, 62, 0, 0, 0, 0, 64, 148, 144, 62, 0, 127, 129, 96, 0, 0, 252, 190, 179, 20, 84, 62, 0, 0, 0, 0, 4, 81, 66, 62, 0, 127, 129, 96, 84, 57, 252, 190, 28, 62, 252, 61, 0, 0, 0, 0, 15, 243, 198, 61, 0, 127, 129, 95, 86, 61, 252, 190, 28, 62, 252, 61, 0, 0, 0, 0, 15, 243, 198, 61, 0, 127, 129, 97, 86, 61, 252, 190, 164, 165, 32, 61, 0, 0, 0, 0, 80, 65, 148, 59, 0, 127, 129, 96, 9, 64, 252, 190, 164, 165, 32, 61, 0, 0, 0, 0, 80, 65, 148, 59, 0, 127, 129, 96, 9, 64, 252, 190, 238, 48, 55, 189, 0, 0, 0, 0, 227, 106, 180, 189, 0, 127, 129, 97, 94, 65, 252, 190, 26, 102, 151, 62, 0, 0, 0, 0, 254, 134, 142, 62, 0, 127, 129, 97, 0, 0, 106, 190, 104, 152, 93, 62, 0, 0, 0, 0, 249, 27, 58, 62, 0, 127, 129, 98, 84, 57, 106, 190, 157, 100, 12, 62, 0, 0, 0, 0, 236, 83, 174, 61, 0, 127, 129, 98, 86, 61, 106, 190, 72, 195, 108, 61, 0, 0, 0, 0, 208, 128, 60, 188, 0, 127, 129, 98, 9, 64, 106, 190, 200, 23, 176, 188, 0, 0, 0, 0, 31, 116, 221, 189, 0, 127, 129, 99, 94, 65, 106, 190, 14, 224, 153, 62, 0, 0, 0, 0, 63, 152, 140, 62, 0, 127, 129, 99, 0, 0, 232, 189, 59, 128, 103, 62, 0, 0, 0, 0, 254, 96, 50, 62, 0, 127, 129, 99, 84, 57, 232, 189, 90, 64, 27, 62, 0, 0, 0, 0, 252, 34, 151, 61, 0, 127, 129, 99, 86, 61, 232, 189, 242, 0, 158, 61, 0, 0, 0, 0, 16, 240, 217, 188, 0, 127, 129, 99, 9, 64, 232, 189, 32, 38, 48, 59, 0, 0, 0, 0, 130, 13, 2, 190, 0, 127, 129, 100, 94, 65, 232, 189, 136, 113, 156, 62, 0, 0, 0, 0, 50, 201, 138, 62, 0, 127, 129, 100, 0, 0, 86, 189, 35, 198, 113, 62, 0, 0, 0, 0, 204, 36, 43, 62, 0, 127, 129, 101, 84, 57, 86, 189, 35, 198, 113, 62, 0, 0, 0, 0, 204, 36, 43, 62, 0, 127, 129, 101, 84, 57, 86, 189, 54, 169, 42, 62, 0, 0, 0, 0, 103, 110, 129, 61, 0, 127, 129, 103, 86, 61, 86, 189, 54, 169, 42, 62, 0, 0, 0, 0, 103, 110, 129, 61, 0, 127, 129, 101, 86, 61, 86, 189, 146, 24, 199, 61, 0, 0, 0, 0, 150, 217, 38, 189, 0, 127, 129, 101, 9, 64, 86, 189, 228, 122, 227, 60, 0, 0, 0, 0, 254, 35, 20, 190, 0, 127, 129, 102, 94, 65, 86, 189, 240, 24, 159, 62, 0, 0, 0, 0, 248, 26, 137, 62, 0, 127, 129, 102, 0, 0, 196, 188, 194, 99, 124, 62, 0, 0, 0, 0, 227, 107, 36, 62, 0, 127, 129, 102, 84, 57, 196, 188, 194, 99, 124, 62, 0, 0, 0, 0, 227, 107, 36, 62, 0, 127, 129, 104, 84, 57, 196, 188, 164, 149, 58, 62, 0, 0, 0, 0, 88, 135, 90, 61, 0, 127, 129, 103, 86, 61, 196, 188, 164, 149, 58, 62, 0, 0, 0, 0, 88, 135, 90, 61, 0, 127, 129, 102, 86, 61, 196, 188, 13, 143, 241, 61, 0, 0, 0, 0, 222, 160, 92, 189, 0, 127, 129, 103, 9, 64, 196, 188, 13, 143, 241, 61, 0, 0, 0, 0, 222, 160, 92, 189, 0, 127, 129, 103, 9, 64, 196, 188, 166, 229, 91, 61, 0, 0, 0, 0, 68, 242, 36, 190, 0, 127, 129, 104, 94, 65, 196, 188, 166, 229, 91, 61, 0, 0, 0, 0, 68, 242, 36, 190, 0, 127, 129, 103, 94, 65, 196, 188, 163, 212, 161, 62, 0, 0, 0, 0, 152, 142, 135, 62, 0, 127, 129, 104, 0, 0, 66, 188, 71, 169, 131, 62, 0, 0, 0, 0, 99, 58, 30, 62, 0, 127, 129, 104, 84, 57, 66, 188, 71, 169, 131, 62, 0, 0, 0, 0, 99, 58, 30, 62, 0, 127, 129, 105, 84, 57, 66, 188, 214, 251, 74, 62, 0, 0, 0, 0, 92, 94, 53, 61, 0, 127, 129, 105, 86, 61, 66, 188, 214, 251, 74, 62, 0, 0, 0, 0, 92, 94, 53, 61, 0, 127, 129, 104, 86, 61, 66, 188, 29, 165, 14, 62, 0, 0, 0, 0, 106, 22, 135, 189, 0, 127, 129, 103, 9, 64, 66, 188, 29, 165, 14, 62, 0, 0, 0, 0, 106, 22, 135, 189, 0, 127, 129, 105, 9, 64, 66, 188, 201, 156, 164, 61, 0, 0, 0, 0, 2, 110, 52, 190, 0, 127, 129, 104, 94, 65, 66, 188, 201, 156, 164, 61, 0, 0, 0, 0, 2, 110, 52, 190, 0, 127, 129, 105, 94, 65, 66, 188, 239, 162, 164, 62, 0, 0, 0, 0, 9, 37, 134, 62, 0, 127, 129, 105, 0, 0, 96, 187, 223, 69, 137, 62, 0, 0, 0, 0, 38, 148, 24, 62, 0, 127, 129, 105, 84, 57, 96, 187, 223, 69, 137, 62, 0, 0, 0, 0, 38, 148, 24, 62, 0, 127, 129, 107, 84, 57, 96, 187, 157, 209, 91, 62, 0, 0, 0, 0, 236, 120, 19, 61, 0, 127, 129, 106, 86, 61, 96, 187, 157, 209, 91, 62, 0, 0, 0, 0, 236, 120, 19, 61, 0, 127, 129, 108, 86, 61, 96, 187, 124, 23, 37, 62, 0, 0, 0, 0, 96, 175, 157, 189, 0, 127, 129, 108, 9, 64, 96, 187, 124, 23, 37, 62, 0, 0, 0, 0, 96, 175, 157, 189, 0, 127, 129, 106, 9, 64, 96, 187, 182, 186, 220, 61, 0, 0, 0, 0, 155, 141, 66, 190, 0, 127, 129, 107, 94, 65, 96, 187, 28, 130, 167, 62, 0, 0, 0, 0, 39, 223, 132, 62, 0, 127, 129, 107, 0, 0, 60, 186, 58, 4, 143, 62, 0, 0, 0, 0, 158, 124, 19, 62, 0, 127, 129, 108, 84, 57, 60, 186, 58, 4, 143, 62, 0, 0, 0, 0, 158, 124, 19, 62, 0, 127, 129, 108, 84, 57, 60, 186, 175, 12, 109, 62, 0, 0, 0, 0, 120, 215, 233, 60, 0, 127, 129, 110, 86, 61, 60, 186, 175, 12, 109, 62, 0, 0, 0, 0, 120, 215, 233, 60, 0, 127, 129, 108, 86, 61, 60, 186, 234, 16, 60, 62, 0, 0, 0, 0, 128, 13, 178, 189, 0, 127, 129, 108, 9, 64, 60, 186, 234, 16, 60, 62, 0, 0, 0, 0, 128, 13, 178, 189, 0, 127, 129, 108, 9, 64, 60, 186, 37, 21, 11, 62, 0, 0, 0, 0, 111, 72, 79, 190, 0, 127, 129, 109, 94, 65, 60, 186, 101, 112, 170, 62, 0, 0, 0, 0, 188, 189, 131, 62, 0, 127, 129, 109, 0, 0, 24, 185, 203, 224, 148, 62, 0, 0, 0, 0, 243, 246, 14, 62, 0, 127, 129, 109, 84, 57, 24, 185, 203, 224, 148, 62, 0, 0, 0, 0, 243, 246, 14, 62, 0, 127, 129, 111, 84, 57, 24, 185, 99, 162, 126, 62, 0, 0, 0, 0, 120, 147, 179, 60, 0, 127, 129, 111, 86, 61, 24, 185, 99, 162, 126, 62, 0, 0, 0, 0, 120, 147, 179, 60, 0, 127, 129, 109, 86, 61, 24, 185, 48, 131, 83, 62, 0, 0, 0, 0, 42, 36, 196, 189, 0, 127, 129, 110, 9, 64, 24, 185, 253, 99, 40, 62, 0, 0, 0, 0, 154, 150, 90, 190, 0, 127, 129, 111, 94, 65, 24, 185, 248, 107, 173, 62, 0, 0, 0, 0, 124, 193, 130, 62, 0, 127, 129, 111, 0, 0, 20, 184, 241, 215, 154, 62, 0, 0, 0, 0, 243, 5, 11, 62, 0, 127, 129, 111, 84, 57, 20, 184, 241, 215, 154, 62, 0, 0, 0, 0, 243, 5, 11, 62, 0, 127, 129, 113, 84, 57, 20, 184, 234, 67, 136, 62, 0, 0, 0, 0, 112, 71, 132, 60, 0, 127, 129, 113, 86, 61, 20, 184, 234, 67, 136, 62, 0, 0, 0, 0, 112, 71, 132, 60, 0, 127, 129, 111, 86, 61, 20, 184, 199, 95, 107, 62, 0, 0, 0, 0, 47, 232, 211, 189, 0, 127, 129, 112, 9, 64, 20, 184, 186, 55, 70, 62, 0, 0, 0, 0, 28, 113, 100, 190, 0, 127, 129, 113, 94, 65, 20, 184, 2, 115, 176, 62, 0, 0, 0, 0, 1, 235, 129, 62, 0, 127, 129, 113, 0, 0, 224, 181, 5, 230, 160, 62, 0, 0, 0, 0, 6, 172, 7, 62, 0, 127, 129, 113, 84, 57, 224, 181, 5, 230, 160, 62, 0, 0, 0, 0, 6, 172, 7, 62, 0, 127, 129, 115, 84, 57, 224, 181, 8, 89, 145, 62, 0, 0, 0, 0, 160, 32, 56, 60, 0, 127, 129, 115, 86, 61, 224, 181, 8, 89, 145, 62, 0, 0, 0, 0, 160, 32, 56, 60, 0, 127, 129, 113, 86, 61, 224, 181, 12, 204, 129, 62, 0, 0, 0, 0, 228, 79, 225, 189, 0, 127, 129, 114, 9, 64, 224, 181, 30, 126, 100, 62, 0, 0, 0, 0, 238, 209, 108, 190, 0, 127, 129, 116, 94, 65, 224, 181, 30, 126, 100, 62, 0, 0, 0, 0, 238, 209, 108, 190, 0, 127, 129, 114, 94, 65, 224, 181, 163, 131, 179, 62, 0, 0, 0, 0, 207, 58, 129, 62, 0, 127, 129, 115, 0, 0, 32, 179, 72, 7, 167, 62, 0, 0, 0, 0, 62, 235, 4, 62, 0, 127, 129, 114, 84, 57, 32, 179, 72, 7, 167, 62, 0, 0, 0, 0, 62, 235, 4, 62, 0, 127, 129, 117, 84, 57, 32, 179, 236, 138, 154, 62, 0, 0, 0, 0, 224, 27, 236, 59, 0, 127, 129, 116, 86, 61, 32, 179, 236, 138, 154, 62, 0, 0, 0, 0, 224, 27, 236, 59, 0, 127, 129, 116, 86, 61, 32, 179, 144, 14, 142, 62, 0, 0, 0, 0, 0, 83, 236, 189, 0, 127, 129, 116, 9, 64, 32, 179, 53, 146, 129, 62, 0, 0, 0, 0, 223, 179, 115, 190, 0, 127, 129, 116, 94, 65, 32, 179, 53, 146, 129, 62, 0, 0, 0, 0, 223, 179, 115, 190, 0, 127, 129, 117, 94, 65, 32, 179, 248, 155, 182, 62, 0, 0, 0, 0, 84, 177, 128, 62, 0, 127, 129, 117, 0, 0, 0, 174, 241, 55, 173, 62, 0, 0, 0, 0, 82, 197, 2, 62, 0, 127, 129, 118, 84, 57, 0, 174, 241, 55, 173, 62, 0, 0, 0, 0, 82, 197, 2, 62, 0, 127, 129, 118, 84, 57, 0, 174, 234, 211, 163, 62, 0, 0, 0, 0, 96, 255, 132, 59, 0, 127, 129, 121, 86, 61, 0, 174, 234, 211, 163, 62, 0, 0, 0, 0, 96, 255, 132, 59, 0, 127, 129, 118, 86, 61, 0, 174, 227, 111, 154, 62, 0, 0, 0, 0, 184, 234, 244, 189, 0, 127, 129, 118, 9, 64, 0, 174, 227, 111, 154, 62, 0, 0, 0, 0, 184, 234, 244, 189, 0, 127, 129, 118, 9, 64, 0, 174, 220, 11, 145, 62, 0, 0, 0, 0, 179, 18, 121, 190, 0, 127, 129, 120, 94, 65, 0, 174, 220, 11, 145, 62, 0, 0, 0, 0, 179, 18, 121, 190, 0, 127, 129, 119, 94, 65, 0, 174, 21, 186, 185, 62, 0, 0, 0, 0, 228, 78, 128, 62, 0, 127, 129, 120, 0, 0, 64, 42, 43, 116, 179, 62, 0, 0, 0, 0, 146, 59, 1, 62, 0, 127, 129, 119, 84, 57, 64, 42, 43, 116, 179, 62, 0, 0, 0, 0, 146, 59, 1, 62, 0, 127, 129, 122, 84, 57, 64, 42, 65, 46, 173, 62, 0, 0, 0, 0, 128, 173, 236, 58, 0, 127, 129, 121, 86, 61, 64, 42, 65, 46, 173, 62, 0, 0, 0, 0, 128, 173, 236, 58, 0, 127, 129, 121, 86, 61, 64, 42, 87, 232, 166, 62, 0, 0, 0, 0, 184, 17, 251, 189, 0, 127, 129, 119, 9, 64, 64, 42, 87, 232, 166, 62, 0, 0, 0, 0, 184, 17, 251, 189, 0, 127, 129, 122, 9, 64, 64, 42, 109, 162, 160, 62, 0, 0, 0, 0, 19, 235, 124, 190, 0, 127, 129, 121, 94, 65, 64, 42, 109, 162, 160, 62, 0, 0, 0, 0, 19, 235, 124, 190, 0, 127, 129, 122, 94, 65, 64, 42, 18, 220, 188, 62, 0, 0, 0, 0, 187, 19, 128, 62, 0, 127, 129, 124, 0, 0, 32, 50, 38, 184, 185, 62, 0, 0, 0, 0, 238, 78, 0, 62, 0, 127, 129, 124, 84, 57, 32, 50, 58, 148, 182, 62, 0, 0, 0, 0, 0, 206, 236, 57, 0, 127, 129, 124, 86, 61, 32, 50, 77, 112, 179, 62, 0, 0, 0, 0, 64, 196, 254, 189, 0, 127, 129, 124, 9, 64, 32, 50, 96, 76, 176, 62, 0, 0, 0, 0, 167, 58, 127, 190, 0, 127, 129, 124, 94, 65, 32, 50 ),
"array_index_data": PoolByteArray( 26, 0, 1, 0, 21, 0, 26, 0, 2, 0, 1, 0, 0, 0, 16, 0, 3, 0, 0, 0, 28, 0, 16, 0, 3, 0, 14, 0, 4, 0, 3, 0, 16, 0, 14, 0, 4, 0, 12, 0, 5, 0, 4, 0, 14, 0, 12, 0, 5, 0, 10, 0, 6, 0, 5, 0, 12, 0, 10, 0, 6, 0, 8, 0, 7, 0, 6, 0, 10, 0, 8, 0, 22, 0, 18, 0, 17, 0, 22, 0, 23, 0, 18, 0, 23, 0, 19, 0, 18, 0, 23, 0, 24, 0, 19, 0, 24, 0, 20, 0, 19, 0, 24, 0, 25, 0, 20, 0, 25, 0, 21, 0, 20, 0, 25, 0, 26, 0, 21, 0, 29, 0, 15, 0, 27, 0, 29, 0, 72, 0, 15, 0, 31, 0, 73, 0, 30, 0, 31, 0, 80, 0, 73, 0, 32, 0, 80, 0, 31, 0, 32, 0, 88, 0, 80, 0, 34, 0, 88, 0, 32, 0, 34, 0, 96, 0, 88, 0, 35, 0, 95, 0, 33, 0, 35, 0, 103, 0, 95, 0, 37, 0, 104, 0, 36, 0, 37, 0, 112, 0, 104, 0, 38, 0, 112, 0, 37, 0, 38, 0, 119, 0, 112, 0, 39, 0, 119, 0, 38, 0, 39, 0, 127, 0, 119, 0, 40, 0, 127, 0, 39, 0, 40, 0, 132, 0, 127, 0, 41, 0, 132, 0, 40, 0, 41, 0, 137, 0, 132, 0, 42, 0, 137, 0, 41, 0, 42, 0, 144, 0, 137, 0, 43, 0, 144, 0, 42, 0, 43, 0, 153, 0, 144, 0, 44, 0, 153, 0, 43, 0, 44, 0, 160, 0, 153, 0, 45, 0, 160, 0, 44, 0, 45, 0, 165, 0, 160, 0, 46, 0, 165, 0, 45, 0, 46, 0, 173, 0, 165, 0, 47, 0, 173, 0, 46, 0, 47, 0, 182, 0, 173, 0, 48, 0, 182, 0, 47, 0, 48, 0, 189, 0, 182, 0, 49, 0, 189, 0, 48, 0, 49, 0, 194, 0, 189, 0, 50, 0, 194, 0, 49, 0, 50, 0, 199, 0, 194, 0, 51, 0, 199, 0, 50, 0, 51, 0, 206, 0, 199, 0, 52, 0, 206, 0, 51, 0, 52, 0, 215, 0, 206, 0, 53, 0, 215, 0, 52, 0, 53, 0, 224, 0, 215, 0, 54, 0, 224, 0, 53, 0, 54, 0, 232, 0, 224, 0, 55, 0, 232, 0, 54, 0, 55, 0, 240, 0, 232, 0, 56, 0, 240, 0, 55, 0, 56, 0, 247, 0, 240, 0, 57, 0, 247, 0, 56, 0, 57, 0, 254, 0, 247, 0, 59, 0, 254, 0, 57, 0, 59, 0, 6, 1, 254, 0, 60, 0, 5, 1, 58, 0, 60, 0, 13, 1, 5, 1, 62, 0, 14, 1, 61, 0, 62, 0, 23, 1, 14, 1, 63, 0, 23, 1, 62, 0, 63, 0, 32, 1, 23, 1, 64, 0, 32, 1, 63, 0, 64, 0, 37, 1, 32, 1, 64, 0, 26, 0, 37, 1, 64, 0, 2, 0, 26, 0, 15, 0, 70, 0, 13, 0, 15, 0, 72, 0, 70, 0, 73, 0, 79, 0, 71, 0, 73, 0, 80, 0, 79, 0, 80, 0, 87, 0, 79, 0, 80, 0, 88, 0, 87, 0, 88, 0, 94, 0, 87, 0, 88, 0, 96, 0, 94, 0, 13, 0, 68, 0, 11, 0, 13, 0, 70, 0, 68, 0, 71, 0, 78, 0, 69, 0, 71, 0, 79, 0, 78, 0, 96, 0, 102, 0, 94, 0, 96, 0, 104, 0, 102, 0, 104, 0, 111, 0, 102, 0, 104, 0, 112, 0, 111, 0, 112, 0, 118, 0, 111, 0, 112, 0, 119, 0, 118, 0, 119, 0, 126, 0, 118, 0, 119, 0, 127, 0, 126, 0, 127, 0, 131, 0, 126, 0, 127, 0, 132, 0, 131, 0, 132, 0, 136, 0, 131, 0, 132, 0, 137, 0, 136, 0, 137, 0, 142, 0, 136, 0, 137, 0, 144, 0, 142, 0, 143, 0, 150, 0, 141, 0, 143, 0, 152, 0, 150, 0, 153, 0, 159, 0, 151, 0, 153, 0, 160, 0, 159, 0, 160, 0, 164, 0, 159, 0, 160, 0, 165, 0, 164, 0, 165, 0, 172, 0, 164, 0, 165, 0, 173, 0, 172, 0, 173, 0, 181, 0, 172, 0, 173, 0, 182, 0, 181, 0, 182, 0, 188, 0, 181, 0, 182, 0, 189, 0, 188, 0, 189, 0, 193, 0, 188, 0, 189, 0, 194, 0, 193, 0, 194, 0, 198, 0, 193, 0, 194, 0, 199, 0, 198, 0, 199, 0, 205, 0, 198, 0, 199, 0, 206, 0, 205, 0, 206, 0, 213, 0, 205, 0, 206, 0, 215, 0, 213, 0, 214, 0, 221, 0, 212, 0, 214, 0, 223, 0, 221, 0, 224, 0, 231, 0, 222, 0, 224, 0, 232, 0, 231, 0, 232, 0, 239, 0, 231, 0, 232, 0, 240, 0, 239, 0, 240, 0, 246, 0, 239, 0, 240, 0, 247, 0, 246, 0, 247, 0, 253, 0, 246, 0, 247, 0, 254, 0, 253, 0, 254, 0, 4, 1, 253, 0, 254, 0, 6, 1, 4, 1, 6, 1, 12, 1, 4, 1, 6, 1, 14, 1, 12, 1, 14, 1, 21, 1, 12, 1, 14, 1, 23, 1, 21, 1, 22, 1, 29, 1, 20, 1, 22, 1, 31, 1, 29, 1, 32, 1, 36, 1, 30, 1, 32, 1, 37, 1, 36, 1, 26, 0, 36, 1, 37, 1, 26, 0, 25, 0, 36, 1, 25, 0, 35, 1, 36, 1, 25, 0, 24, 0, 35, 1, 79, 0, 85, 0, 78, 0, 79, 0, 87, 0, 85, 0, 86, 0, 91, 0, 84, 0, 86, 0, 93, 0, 91, 0, 94, 0, 101, 0, 92, 0, 94, 0, 102, 0, 101, 0, 102, 0, 109, 0, 101, 0, 102, 0, 111, 0, 109, 0, 110, 0, 116, 0, 108, 0, 110, 0, 117, 0, 116, 0, 117, 0, 123, 0, 116, 0, 117, 0, 125, 0, 123, 0, 126, 0, 130, 0, 124, 0, 126, 0, 131, 0, 130, 0, 131, 0, 135, 0, 130, 0, 131, 0, 136, 0, 135, 0, 136, 0, 140, 0, 135, 0, 136, 0, 142, 0, 140, 0, 142, 0, 149, 0, 140, 0, 142, 0, 151, 0, 149, 0, 151, 0, 158, 0, 149, 0, 151, 0, 159, 0, 158, 0, 159, 0, 163, 0, 158, 0, 159, 0, 164, 0, 163, 0, 164, 0, 171, 0, 163, 0, 164, 0, 172, 0, 171, 0, 172, 0, 179, 0, 171, 0, 172, 0, 181, 0, 179, 0, 180, 0, 185, 0, 178, 0, 180, 0, 187, 0, 185, 0, 188, 0, 192, 0, 186, 0, 188, 0, 193, 0, 192, 0, 193, 0, 197, 0, 192, 0, 193, 0, 198, 0, 197, 0, 198, 0, 204, 0, 197, 0, 198, 0, 205, 0, 204, 0, 205, 0, 211, 0, 204, 0, 205, 0, 213, 0, 211, 0, 213, 0, 220, 0, 211, 0, 213, 0, 222, 0, 220, 0, 222, 0, 229, 0, 220, 0, 222, 0, 231, 0, 229, 0, 230, 0, 236, 0, 228, 0, 230, 0, 238, 0, 236, 0, 239, 0, 245, 0, 237, 0, 239, 0, 246, 0, 245, 0, 246, 0, 252, 0, 245, 0, 246, 0, 253, 0, 252, 0, 253, 0, 3, 1, 252, 0, 253, 0, 4, 1, 3, 1, 4, 1, 11, 1, 3, 1, 4, 1, 12, 1, 11, 1, 12, 1, 19, 1, 11, 1, 12, 1, 21, 1, 19, 1, 21, 1, 28, 1, 19, 1, 21, 1, 30, 1, 28, 1, 30, 1, 35, 1, 28, 1, 30, 1, 36, 1, 35, 1, 11, 0, 66, 0, 9, 0, 11, 0, 68, 0, 66, 0, 69, 0, 76, 0, 67, 0, 69, 0, 78, 0, 76, 0, 77, 0, 82, 0, 75, 0, 77, 0, 84, 0, 82, 0, 85, 0, 90, 0, 83, 0, 85, 0, 92, 0, 90, 0, 92, 0, 99, 0, 90, 0, 92, 0, 101, 0, 99, 0, 100, 0, 106, 0, 98, 0, 100, 0, 108, 0, 106, 0, 108, 0, 114, 0, 106, 0, 108, 0, 116, 0, 114, 0, 116, 0, 121, 0, 114, 0, 116, 0, 123, 0, 121, 0, 124, 0, 129, 0, 122, 0, 124, 0, 130, 0, 129, 0, 130, 0, 134, 0, 129, 0, 130, 0, 135, 0, 134, 0, 135, 0, 139, 0, 134, 0, 135, 0, 140, 0, 139, 0, 140, 0, 147, 0, 139, 0, 140, 0, 149, 0, 147, 0, 148, 0, 155, 0, 146, 0, 148, 0, 157, 0, 155, 0, 158, 0, 162, 0, 156, 0, 158, 0, 163, 0, 162, 0, 163, 0, 169, 0, 162, 0, 163, 0, 171, 0, 169, 0, 170, 0, 176, 0, 168, 0, 170, 0, 178, 0, 176, 0, 179, 0, 184, 0, 177, 0, 179, 0, 186, 0, 184, 0, 186, 0, 191, 0, 184, 0, 186, 0, 192, 0, 191, 0, 192, 0, 196, 0, 191, 0, 192, 0, 197, 0, 196, 0, 197, 0, 202, 0, 196, 0, 197, 0, 204, 0, 202, 0, 203, 0, 208, 0, 201, 0, 203, 0, 210, 0, 208, 0, 210, 0, 217, 0, 208, 0, 210, 0, 219, 0, 217, 0, 219, 0, 226, 0, 217, 0, 219, 0, 228, 0, 226, 0, 229, 0, 235, 0, 227, 0, 229, 0, 237, 0, 235, 0, 236, 0, 242, 0, 234, 0, 236, 0, 244, 0, 242, 0, 244, 0, 249, 0, 242, 0, 244, 0, 251, 0, 249, 0, 251, 0, 0, 1, 249, 0, 251, 0, 2, 1, 0, 1, 2, 1, 8, 1, 0, 1, 2, 1, 10, 1, 8, 1, 11, 1, 17, 1, 9, 1, 11, 1, 19, 1, 17, 1, 18, 1, 25, 1, 16, 1, 18, 1, 27, 1, 25, 1, 28, 1, 34, 1, 26, 1, 28, 1, 35, 1, 34, 1, 24, 0, 34, 1, 35, 1, 24, 0, 23, 0, 34, 1, 23, 0, 33, 1, 34, 1, 23, 0, 22, 0, 33, 1, 26, 1, 33, 1, 24, 1, 26, 1, 34, 1, 33, 1, 17, 1, 24, 1, 15, 1, 17, 1, 26, 1, 24, 1, 9, 1, 15, 1, 7, 1, 9, 1, 17, 1, 15, 1, 1, 1, 7, 1, 255, 0, 1, 1, 9, 1, 7, 1, 250, 0, 255, 0, 248, 0, 250, 0, 1, 1, 255, 0, 243, 0, 248, 0, 241, 0, 243, 0, 250, 0, 248, 0, 235, 0, 241, 0, 233, 0, 235, 0, 243, 0, 241, 0, 227, 0, 233, 0, 225, 0, 227, 0, 235, 0, 233, 0, 218, 0, 225, 0, 216, 0, 218, 0, 227, 0, 225, 0, 209, 0, 216, 0, 207, 0, 209, 0, 218, 0, 216, 0, 202, 0, 207, 0, 200, 0, 202, 0, 209, 0, 207, 0, 196, 0, 200, 0, 195, 0, 196, 0, 202, 0, 200, 0, 191, 0, 195, 0, 190, 0, 191, 0, 196, 0, 195, 0, 184, 0, 190, 0, 183, 0, 184, 0, 191, 0, 190, 0, 177, 0, 183, 0, 175, 0, 177, 0, 184, 0, 183, 0, 168, 0, 174, 0, 166, 0, 168, 0, 176, 0, 174, 0, 162, 0, 167, 0, 161, 0, 162, 0, 169, 0, 167, 0, 156, 0, 161, 0, 154, 0, 156, 0, 162, 0, 161, 0, 147, 0, 154, 0, 145, 0, 147, 0, 156, 0, 154, 0, 139, 0, 145, 0, 138, 0, 139, 0, 147, 0, 145, 0, 134, 0, 138, 0, 133, 0, 134, 0, 139, 0, 138, 0, 129, 0, 133, 0, 128, 0, 129, 0, 134, 0, 133, 0, 122, 0, 128, 0, 120, 0, 122, 0, 129, 0, 128, 0, 115, 0, 120, 0, 113, 0, 115, 0, 122, 0, 120, 0, 107, 0, 113, 0, 105, 0, 107, 0, 115, 0, 113, 0, 99, 0, 105, 0, 97, 0, 99, 0, 107, 0, 105, 0, 83, 0, 89, 0, 81, 0, 83, 0, 90, 0, 89, 0, 90, 0, 97, 0, 89, 0, 90, 0, 99, 0, 97, 0, 76, 0, 81, 0, 74, 0, 76, 0, 83, 0, 81, 0, 10, 0, 65, 0, 8, 0, 10, 0, 67, 0, 65, 0, 67, 0, 74, 0, 65, 0, 67, 0, 76, 0, 74, 0 ),
"blend_shape_data": [  ],
"format": 2194711,
"index_count": 1020,
"material": ExtResource( 4 ),
"primitive": 4,
"skeleton_aabb": [  ],
"vertex_count": 294
}
surfaces/1 = {
"aabb": AABB( -0.5, 0, -0.5, 1, 0.02, 1.00001 ),
"array_data": PoolByteArray( 255, 255, 191, 190, 0, 0, 0, 0, 0, 0, 0, 63, 0, 0, 127, 63, 0, 56, 80, 60, 255, 255, 191, 190, 0, 0, 0, 0, 0, 0, 0, 63, 127, 0, 0, 1, 164, 56, 252, 59, 255, 255, 191, 62, 0, 0, 0, 0, 0, 0, 0, 63, 0, 0, 129, 193, 0, 0, 80, 60, 255, 255, 191, 62, 0, 0, 0, 0, 0, 0, 0, 63, 127, 0, 0, 129, 64, 173, 0, 60, 0, 0, 0, 63, 0, 0, 0, 0, 255, 255, 191, 62, 0, 0, 0, 129, 64, 173, 0, 0, 0, 0, 0, 63, 0, 0, 0, 0, 255, 255, 191, 62, 127, 0, 127, 129, 0, 0, 0, 173, 0, 0, 0, 63, 0, 0, 0, 0, 255, 255, 191, 190, 0, 0, 0, 1, 164, 56, 9, 195, 0, 0, 0, 63, 0, 0, 0, 0, 255, 255, 191, 190, 127, 0, 0, 63, 0, 56, 50, 195, 255, 255, 191, 62, 0, 0, 0, 0, 255, 255, 191, 62, 0, 0, 0, 129, 64, 173, 4, 56, 255, 255, 191, 62, 0, 0, 0, 0, 255, 255, 191, 62, 127, 0, 0, 129, 64, 173, 4, 56, 255, 255, 191, 62, 0, 0, 0, 0, 255, 255, 191, 190, 0, 0, 0, 1, 164, 56, 5, 194, 255, 255, 191, 62, 0, 0, 0, 0, 255, 255, 191, 190, 3, 0, 0, 1, 164, 56, 5, 194, 255, 255, 127, 62, 0, 0, 0, 0, 0, 0, 0, 63, 129, 0, 0, 255, 164, 56, 0, 60, 255, 255, 127, 62, 0, 0, 0, 0, 0, 0, 0, 63, 0, 0, 129, 193, 0, 56, 80, 60, 254, 255, 127, 62, 0, 0, 0, 0, 255, 255, 191, 62, 129, 0, 0, 255, 164, 56, 4, 56, 254, 255, 127, 62, 0, 0, 0, 0, 255, 255, 191, 62, 129, 3, 0, 255, 164, 56, 4, 56, 0, 0, 0, 63, 0, 0, 0, 0, 254, 255, 127, 62, 127, 127, 0, 255, 164, 56, 0, 0, 0, 0, 0, 63, 0, 0, 0, 0, 254, 255, 127, 62, 127, 0, 127, 129, 0, 56, 0, 173, 255, 255, 191, 62, 0, 0, 0, 0, 254, 255, 127, 62, 129, 123, 0, 255, 164, 56, 0, 0, 255, 255, 191, 62, 0, 0, 0, 0, 254, 255, 127, 62, 127, 127, 0, 255, 164, 56, 4, 56, 135, 4, 170, 62, 0, 0, 0, 0, 220, 117, 255, 190, 129, 118, 0, 127, 32, 173, 206, 193, 135, 4, 170, 62, 0, 0, 0, 0, 220, 117, 255, 190, 129, 123, 0, 127, 32, 173, 206, 193, 153, 22, 148, 62, 0, 0, 0, 0, 190, 215, 253, 190, 129, 113, 0, 127, 32, 173, 151, 193, 153, 22, 148, 62, 0, 0, 0, 0, 190, 215, 253, 190, 129, 118, 0, 127, 32, 173, 151, 193, 154, 135, 124, 62, 0, 0, 0, 0, 174, 38, 251, 190, 129, 108, 0, 127, 32, 173, 97, 193, 154, 135, 124, 62, 0, 0, 0, 0, 174, 38, 251, 190, 129, 113, 0, 127, 32, 173, 97, 193, 252, 50, 81, 62, 0, 0, 0, 0, 80, 100, 247, 190, 129, 103, 0, 127, 32, 173, 42, 193, 252, 50, 81, 62, 0, 0, 0, 0, 80, 100, 247, 190, 129, 108, 0, 127, 32, 173, 42, 193, 44, 74, 38, 62, 0, 0, 0, 0, 242, 146, 242, 190, 129, 99, 0, 127, 32, 173, 243, 192, 44, 74, 38, 62, 0, 0, 0, 0, 242, 146, 242, 190, 129, 103, 0, 127, 32, 173, 243, 192, 64, 207, 247, 61, 0, 0, 0, 0, 146, 181, 236, 190, 129, 95, 0, 127, 32, 173, 187, 192, 64, 207, 247, 61, 0, 0, 0, 0, 146, 181, 236, 190, 129, 99, 0, 127, 32, 173, 187, 192, 48, 75, 164, 61, 0, 0, 0, 0, 210, 207, 229, 190, 129, 91, 0, 127, 32, 173, 132, 192, 48, 75, 164, 61, 0, 0, 0, 0, 210, 207, 229, 190, 129, 95, 0, 127, 32, 173, 132, 192, 112, 118, 36, 61, 0, 0, 0, 0, 232, 229, 221, 190, 129, 87, 0, 127, 32, 173, 75, 192, 112, 118, 36, 61, 0, 0, 0, 0, 232, 229, 221, 190, 129, 91, 0, 127, 32, 173, 75, 192, 0, 26, 105, 58, 0, 0, 0, 0, 186, 252, 212, 190, 129, 84, 0, 127, 32, 173, 20, 192, 0, 26, 105, 58, 0, 0, 0, 0, 186, 252, 212, 190, 129, 87, 0, 127, 32, 173, 20, 192, 48, 124, 25, 189, 0, 0, 0, 0, 206, 25, 203, 190, 129, 81, 0, 127, 32, 173, 182, 191, 48, 124, 25, 189, 0, 0, 0, 0, 206, 25, 203, 190, 129, 84, 0, 127, 32, 173, 182, 191, 160, 69, 153, 189, 0, 0, 0, 0, 46, 67, 192, 190, 129, 77, 0, 127, 32, 173, 68, 191, 160, 69, 153, 189, 0, 0, 0, 0, 46, 67, 192, 190, 129, 81, 0, 127, 32, 173, 68, 191, 248, 148, 227, 189, 0, 0, 0, 0, 152, 127, 180, 190, 129, 74, 0, 127, 32, 173, 214, 190, 248, 148, 227, 189, 0, 0, 0, 0, 152, 127, 180, 190, 129, 77, 0, 127, 32, 173, 214, 190, 40, 191, 21, 190, 0, 0, 0, 0, 64, 214, 167, 190, 129, 71, 0, 127, 32, 173, 100, 190, 40, 191, 21, 190, 0, 0, 0, 0, 64, 214, 167, 190, 129, 74, 0, 127, 32, 173, 100, 190, 144, 106, 56, 190, 0, 0, 0, 0, 8, 79, 154, 190, 129, 68, 0, 127, 32, 173, 244, 189, 144, 106, 56, 190, 0, 0, 0, 0, 8, 79, 154, 190, 129, 71, 0, 127, 32, 173, 244, 189, 132, 183, 89, 190, 0, 0, 0, 0, 54, 242, 139, 190, 129, 65, 0, 127, 32, 173, 130, 189, 132, 183, 89, 190, 0, 0, 0, 0, 54, 242, 139, 190, 129, 68, 0, 127, 32, 173, 130, 189, 88, 145, 121, 190, 0, 0, 0, 0, 80, 145, 121, 190, 129, 61, 0, 126, 32, 173, 18, 189, 88, 145, 121, 190, 0, 0, 0, 0, 80, 145, 121, 190, 129, 65, 0, 127, 32, 173, 18, 189, 46, 242, 139, 190, 0, 0, 0, 0, 140, 183, 89, 190, 129, 58, 254, 124, 32, 173, 158, 188, 46, 242, 139, 190, 0, 0, 0, 0, 140, 183, 89, 190, 129, 61, 253, 123, 32, 173, 158, 188, 4, 79, 154, 190, 0, 0, 0, 0, 156, 106, 56, 190, 129, 55, 0, 127, 32, 173, 46, 188, 4, 79, 154, 190, 0, 0, 0, 0, 156, 106, 56, 190, 129, 58, 0, 127, 32, 173, 46, 188, 68, 214, 167, 190, 0, 0, 0, 0, 28, 191, 21, 190, 129, 52, 0, 127, 32, 173, 120, 187, 68, 214, 167, 190, 0, 0, 0, 0, 28, 191, 21, 190, 129, 55, 0, 127, 32, 173, 120, 187, 152, 127, 180, 190, 0, 0, 0, 0, 224, 148, 227, 189, 129, 49, 0, 127, 32, 173, 152, 186, 152, 127, 180, 190, 0, 0, 0, 0, 224, 148, 227, 189, 129, 52, 0, 127, 32, 173, 152, 186, 44, 67, 192, 190, 0, 0, 0, 0, 180, 69, 153, 189, 129, 45, 0, 127, 32, 173, 184, 185, 44, 67, 192, 190, 0, 0, 0, 0, 180, 69, 153, 189, 129, 49, 0, 127, 32, 173, 184, 185, 202, 25, 203, 190, 0, 0, 0, 0, 104, 124, 25, 189, 129, 42, 0, 127, 32, 173, 212, 184, 202, 25, 203, 190, 0, 0, 0, 0, 104, 124, 25, 189, 129, 45, 0, 127, 32, 173, 212, 184, 188, 252, 212, 190, 0, 0, 0, 0, 0, 40, 105, 58, 129, 39, 0, 127, 32, 173, 232, 183, 188, 252, 212, 190, 0, 0, 0, 0, 0, 40, 105, 58, 129, 42, 0, 127, 32, 173, 232, 183, 226, 229, 221, 190, 0, 0, 0, 0, 64, 118, 36, 61, 129, 35, 0, 126, 32, 173, 32, 182, 226, 229, 221, 190, 0, 0, 0, 0, 64, 118, 36, 61, 129, 39, 0, 127, 32, 173, 32, 182, 206, 207, 229, 190, 0, 0, 0, 0, 20, 75, 164, 61, 129, 31, 255, 124, 32, 173, 96, 180, 206, 207, 229, 190, 0, 0, 0, 0, 20, 75, 164, 61, 129, 35, 255, 124, 32, 173, 96, 180, 146, 181, 236, 190, 0, 0, 0, 0, 92, 207, 247, 61, 129, 27, 0, 126, 32, 173, 64, 177, 146, 181, 236, 190, 0, 0, 0, 0, 92, 207, 247, 61, 129, 31, 0, 127, 32, 173, 64, 177, 238, 146, 242, 190, 0, 0, 0, 0, 31, 74, 38, 62, 129, 23, 0, 124, 32, 173, 0, 171, 238, 146, 242, 190, 0, 0, 0, 0, 31, 74, 38, 62, 129, 27, 255, 124, 32, 173, 0, 171, 74, 100, 247, 190, 0, 0, 0, 0, 239, 50, 81, 62, 129, 18, 0, 127, 32, 173, 192, 42, 74, 100, 247, 190, 0, 0, 0, 0, 239, 50, 81, 62, 129, 23, 0, 127, 32, 173, 192, 42, 172, 38, 251, 190, 0, 0, 0, 0, 142, 135, 124, 62, 129, 13, 0, 127, 32, 173, 48, 49, 172, 38, 251, 190, 0, 0, 0, 0, 142, 135, 124, 62, 129, 18, 0, 127, 32, 173, 48, 49, 190, 215, 253, 190, 0, 0, 0, 0, 161, 22, 148, 62, 129, 8, 0, 127, 32, 173, 80, 52, 190, 215, 253, 190, 0, 0, 0, 0, 161, 22, 148, 62, 129, 13, 0, 127, 32, 173, 80, 52, 216, 117, 255, 190, 0, 0, 0, 0, 130, 4, 170, 62, 129, 3, 0, 127, 32, 173, 8, 54, 216, 117, 255, 190, 0, 0, 0, 0, 130, 4, 170, 62, 129, 8, 0, 127, 32, 173, 8, 54, 0, 0, 0, 191, 0, 0, 0, 0, 255, 255, 191, 62, 130, 0, 0, 127, 32, 173, 192, 55, 0, 0, 0, 191, 0, 0, 0, 0, 255, 255, 191, 62, 129, 3, 0, 127, 32, 173, 192, 55, 0, 0, 192, 190, 0, 0, 0, 0, 255, 255, 191, 62, 123, 0, 0, 1, 164, 56, 192, 55, 0, 0, 192, 190, 0, 0, 0, 0, 255, 255, 191, 62, 127, 0, 0, 1, 164, 56, 192, 55, 150, 137, 191, 190, 0, 0, 0, 0, 111, 40, 173, 62, 118, 0, 0, 1, 164, 56, 8, 54, 150, 137, 191, 190, 0, 0, 0, 0, 111, 40, 173, 62, 123, 0, 0, 1, 164, 56, 8, 54, 164, 38, 190, 190, 0, 0, 0, 0, 138, 92, 154, 62, 113, 0, 0, 1, 164, 56, 80, 52, 164, 38, 190, 190, 0, 0, 0, 0, 138, 92, 154, 62, 118, 0, 0, 1, 164, 56, 80, 52, 2, 216, 187, 190, 0, 0, 0, 0, 207, 167, 135, 62, 108, 0, 0, 1, 164, 56, 48, 49, 2, 216, 187, 190, 0, 0, 0, 0, 207, 167, 135, 62, 113, 0, 0, 1, 164, 56, 48, 49, 28, 159, 184, 190, 0, 0, 0, 0, 168, 43, 106, 62, 103, 0, 1, 1, 164, 56, 192, 42, 28, 159, 184, 190, 0, 0, 0, 0, 168, 43, 106, 62, 108, 0, 0, 1, 164, 56, 192, 42, 242, 125, 180, 190, 0, 0, 0, 0, 26, 100, 69, 62, 99, 0, 3, 1, 164, 56, 0, 171, 242, 125, 180, 190, 0, 0, 0, 0, 26, 100, 69, 62, 103, 0, 4, 1, 164, 56, 0, 171, 16, 119, 175, 190, 0, 0, 0, 0, 185, 15, 33, 62, 95, 0, 1, 1, 164, 56, 64, 177, 16, 119, 175, 190, 0, 0, 0, 0, 185, 15, 33, 62, 99, 0, 0, 1, 164, 56, 64, 177, 140, 141, 169, 190, 0, 0, 0, 0, 124, 137, 250, 61, 91, 0, 3, 1, 164, 56, 96, 180, 140, 141, 169, 190, 0, 0, 0, 0, 124, 137, 250, 61, 95, 0, 5, 1, 164, 56, 96, 180, 12, 197, 162, 190, 0, 0, 0, 0, 172, 50, 180, 61, 87, 0, 0, 1, 164, 56, 32, 182, 12, 197, 162, 190, 0, 0, 0, 0, 172, 50, 180, 61, 91, 0, 0, 1, 164, 56, 32, 182, 198, 33, 155, 190, 0, 0, 0, 0, 24, 141, 94, 61, 84, 0, 0, 1, 164, 56, 232, 183, 198, 33, 155, 190, 0, 0, 0, 0, 24, 141, 94, 61, 87, 0, 0, 1, 164, 56, 232, 183, 100, 168, 146, 190, 0, 0, 0, 0, 0, 189, 175, 60, 81, 0, 0, 1, 164, 56, 212, 184, 100, 168, 146, 190, 0, 0, 0, 0, 0, 189, 175, 60, 84, 0, 0, 1, 164, 56, 212, 184, 38, 94, 137, 190, 0, 0, 0, 0, 192, 75, 45, 188, 77, 0, 0, 1, 164, 56, 184, 185, 38, 94, 137, 190, 0, 0, 0, 0, 192, 75, 45, 188, 81, 0, 0, 1, 164, 56, 184, 185, 152, 145, 126, 190, 0, 0, 0, 0, 24, 182, 42, 189, 74, 0, 0, 1, 164, 56, 152, 186, 152, 145, 126, 190, 0, 0, 0, 0, 24, 182, 42, 189, 77, 0, 0, 1, 164, 56, 152, 186, 8, 221, 104, 190, 0, 0, 0, 0, 124, 254, 146, 189, 71, 0, 0, 1, 164, 56, 120, 187, 8, 221, 104, 190, 0, 0, 0, 0, 124, 254, 146, 189, 74, 0, 0, 1, 164, 56, 120, 187, 8, 172, 81, 190, 0, 0, 0, 0, 160, 109, 206, 189, 68, 0, 1, 1, 164, 56, 46, 188, 8, 172, 81, 190, 0, 0, 0, 0, 160, 109, 206, 189, 71, 0, 0, 1, 164, 56, 46, 188, 228, 12, 57, 190, 0, 0, 0, 0, 230, 193, 3, 190, 65, 0, 3, 1, 164, 56, 158, 188, 228, 12, 57, 190, 0, 0, 0, 0, 230, 193, 3, 190, 68, 0, 5, 1, 164, 56, 158, 188, 224, 14, 31, 190, 0, 0, 0, 0, 214, 14, 31, 190, 61, 0, 0, 1, 164, 56, 18, 189, 224, 14, 31, 190, 0, 0, 0, 0, 214, 14, 31, 190, 65, 0, 0, 1, 164, 56, 18, 189, 224, 193, 3, 190, 0, 0, 0, 0, 238, 12, 57, 190, 58, 0, 0, 1, 164, 56, 130, 189, 224, 193, 3, 190, 0, 0, 0, 0, 238, 12, 57, 190, 61, 0, 0, 1, 164, 56, 130, 189, 136, 109, 206, 189, 0, 0, 0, 0, 18, 172, 81, 190, 55, 0, 0, 1, 164, 56, 244, 189, 136, 109, 206, 189, 0, 0, 0, 0, 18, 172, 81, 190, 58, 0, 0, 1, 164, 56, 244, 189, 144, 254, 146, 189, 0, 0, 0, 0, 2, 221, 104, 190, 52, 0, 0, 1, 164, 56, 100, 190, 144, 254, 146, 189, 0, 0, 0, 0, 2, 221, 104, 190, 55, 0, 0, 1, 164, 56, 100, 190, 64, 182, 42, 189, 0, 0, 0, 0, 150, 145, 126, 190, 49, 0, 0, 1, 164, 56, 214, 190, 64, 182, 42, 189, 0, 0, 0, 0, 150, 145, 126, 190, 52, 0, 0, 1, 164, 56, 214, 190, 64, 75, 45, 188, 0, 0, 0, 0, 41, 94, 137, 190, 45, 0, 0, 1, 164, 56, 68, 191, 64, 75, 45, 188, 0, 0, 0, 0, 41, 94, 137, 190, 49, 0, 0, 1, 164, 56, 68, 191, 96, 189, 175, 60, 0, 0, 0, 0, 103, 168, 146, 190, 42, 0, 0, 1, 164, 56, 182, 191, 96, 189, 175, 60, 0, 0, 0, 0, 103, 168, 146, 190, 45, 0, 0, 1, 164, 56, 182, 191, 232, 140, 94, 61, 0, 0, 0, 0, 195, 33, 155, 190, 39, 0, 0, 1, 164, 56, 20, 192, 232, 140, 94, 61, 0, 0, 0, 0, 195, 33, 155, 190, 42, 0, 0, 1, 164, 56, 20, 192, 192, 50, 180, 61, 0, 0, 0, 0, 15, 197, 162, 190, 35, 0, 0, 1, 164, 56, 75, 192, 192, 50, 180, 61, 0, 0, 0, 0, 15, 197, 162, 190, 39, 0, 0, 1, 164, 56, 75, 192, 148, 137, 250, 61, 0, 0, 0, 0, 143, 141, 169, 190, 31, 0, 0, 1, 164, 56, 132, 192, 148, 137, 250, 61, 0, 0, 0, 0, 143, 141, 169, 190, 35, 0, 0, 1, 164, 56, 132, 192, 174, 15, 33, 62, 0, 0, 0, 0, 17, 119, 175, 190, 27, 0, 0, 1, 164, 56, 187, 192, 174, 15, 33, 62, 0, 0, 0, 0, 17, 119, 175, 190, 31, 0, 0, 1, 164, 56, 187, 192, 37, 100, 69, 62, 0, 0, 0, 0, 245, 125, 180, 190, 23, 0, 0, 1, 164, 56, 243, 192, 37, 100, 69, 62, 0, 0, 0, 0, 245, 125, 180, 190, 27, 0, 0, 1, 164, 56, 243, 192, 179, 43, 106, 62, 0, 0, 0, 0, 31, 159, 184, 190, 18, 0, 0, 1, 164, 56, 42, 193, 179, 43, 106, 62, 0, 0, 0, 0, 31, 159, 184, 190, 23, 0, 0, 1, 164, 56, 42, 193, 212, 167, 135, 62, 0, 0, 0, 0, 5, 216, 187, 190, 13, 0, 0, 1, 164, 56, 97, 193, 212, 167, 135, 62, 0, 0, 0, 0, 5, 216, 187, 190, 18, 0, 0, 1, 164, 56, 97, 193, 131, 92, 154, 62, 0, 0, 0, 0, 165, 38, 190, 190, 8, 0, 0, 1, 164, 56, 151, 193, 131, 92, 154, 62, 0, 0, 0, 0, 165, 38, 190, 190, 13, 0, 0, 1, 164, 56, 151, 193, 116, 40, 173, 62, 0, 0, 0, 0, 151, 137, 191, 190, 3, 0, 0, 1, 164, 56, 206, 193, 116, 40, 173, 62, 0, 0, 0, 0, 151, 137, 191, 190, 8, 0, 0, 1, 164, 56, 206, 193, 0, 0, 192, 62, 0, 0, 0, 0, 0, 0, 0, 191, 129, 123, 0, 127, 32, 173, 5, 194, 0, 0, 192, 62, 0, 0, 0, 0, 0, 0, 0, 191, 127, 127, 0, 127, 32, 173, 5, 194, 188, 19, 128, 62, 0, 0, 0, 0, 18, 220, 188, 62, 129, 3, 0, 255, 164, 56, 200, 55, 188, 19, 128, 62, 0, 0, 0, 0, 18, 220, 188, 62, 129, 8, 0, 255, 164, 56, 200, 55, 228, 78, 128, 62, 0, 0, 0, 0, 22, 186, 185, 62, 129, 8, 0, 255, 164, 56, 136, 55, 228, 78, 128, 62, 0, 0, 0, 0, 22, 186, 185, 62, 129, 13, 0, 255, 164, 56, 136, 55, 84, 177, 128, 62, 0, 0, 0, 0, 247, 155, 182, 62, 129, 13, 0, 255, 164, 56, 72, 55, 84, 177, 128, 62, 0, 0, 0, 0, 247, 155, 182, 62, 129, 18, 0, 255, 164, 56, 72, 55, 208, 58, 129, 62, 0, 0, 0, 0, 162, 131, 179, 62, 129, 18, 0, 255, 164, 56, 8, 55, 208, 58, 129, 62, 0, 0, 0, 0, 162, 131, 179, 62, 129, 23, 0, 255, 164, 56, 8, 55, 2, 235, 129, 62, 0, 0, 0, 0, 1, 115, 176, 62, 129, 23, 0, 255, 164, 56, 200, 54, 2, 235, 129, 62, 0, 0, 0, 0, 1, 115, 176, 62, 129, 27, 0, 255, 164, 56, 200, 54, 124, 193, 130, 62, 0, 0, 0, 0, 249, 107, 173, 62, 129, 27, 0, 255, 164, 56, 136, 54, 124, 193, 130, 62, 0, 0, 0, 0, 249, 107, 173, 62, 129, 31, 0, 255, 164, 56, 136, 54, 189, 189, 131, 62, 0, 0, 0, 0, 100, 112, 170, 62, 129, 31, 0, 255, 164, 56, 72, 54, 189, 189, 131, 62, 0, 0, 0, 0, 100, 112, 170, 62, 129, 35, 0, 255, 164, 56, 72, 54, 40, 223, 132, 62, 0, 0, 0, 0, 28, 130, 167, 62, 129, 35, 0, 255, 164, 56, 8, 54, 40, 223, 132, 62, 0, 0, 0, 0, 28, 130, 167, 62, 129, 39, 0, 255, 164, 56, 8, 54, 9, 37, 134, 62, 0, 0, 0, 0, 240, 162, 164, 62, 129, 39, 0, 255, 164, 56, 200, 53, 9, 37, 134, 62, 0, 0, 0, 0, 240, 162, 164, 62, 129, 42, 0, 255, 164, 56, 200, 53, 153, 142, 135, 62, 0, 0, 0, 0, 162, 212, 161, 62, 129, 42, 0, 255, 164, 56, 136, 53, 153, 142, 135, 62, 0, 0, 0, 0, 162, 212, 161, 62, 129, 45, 0, 255, 164, 56, 136, 53, 249, 26, 137, 62, 0, 0, 0, 0, 240, 24, 159, 62, 129, 45, 0, 255, 164, 56, 72, 53, 249, 26, 137, 62, 0, 0, 0, 0, 240, 24, 159, 62, 129, 49, 0, 255, 164, 56, 72, 53, 50, 201, 138, 62, 0, 0, 0, 0, 137, 113, 156, 62, 129, 49, 0, 255, 164, 56, 8, 53, 50, 201, 138, 62, 0, 0, 0, 0, 137, 113, 156, 62, 129, 52, 0, 255, 164, 56, 8, 53, 62, 152, 140, 62, 0, 0, 0, 0, 15, 224, 153, 62, 129, 52, 0, 255, 164, 56, 200, 52, 62, 152, 140, 62, 0, 0, 0, 0, 15, 224, 153, 62, 129, 55, 0, 255, 164, 56, 200, 52, 254, 134, 142, 62, 0, 0, 0, 0, 24, 102, 151, 62, 129, 55, 0, 255, 164, 56, 136, 52, 254, 134, 142, 62, 0, 0, 0, 0, 24, 102, 151, 62, 129, 58, 0, 255, 164, 56, 136, 52, 66, 148, 144, 62, 0, 0, 0, 0, 44, 5, 149, 62, 129, 58, 0, 255, 164, 56, 72, 52, 66, 148, 144, 62, 0, 0, 0, 0, 44, 5, 149, 62, 129, 61, 0, 255, 164, 56, 72, 52, 194, 190, 146, 62, 0, 0, 0, 0, 194, 190, 146, 62, 129, 61, 0, 255, 164, 56, 0, 52, 194, 190, 146, 62, 0, 0, 0, 0, 194, 190, 146, 62, 129, 65, 0, 255, 164, 56, 0, 52, 44, 5, 149, 62, 0, 0, 0, 0, 64, 148, 144, 62, 129, 65, 0, 255, 164, 56, 128, 51, 44, 5, 149, 62, 0, 0, 0, 0, 64, 148, 144, 62, 129, 68, 0, 255, 164, 56, 128, 51, 26, 102, 151, 62, 0, 0, 0, 0, 254, 134, 142, 62, 129, 68, 0, 255, 164, 56, 0, 51, 26, 102, 151, 62, 0, 0, 0, 0, 254, 134, 142, 62, 129, 71, 0, 255, 164, 56, 0, 51, 14, 224, 153, 62, 0, 0, 0, 0, 63, 152, 140, 62, 129, 71, 0, 255, 164, 56, 128, 50, 14, 224, 153, 62, 0, 0, 0, 0, 63, 152, 140, 62, 129, 74, 0, 255, 164, 56, 128, 50, 136, 113, 156, 62, 0, 0, 0, 0, 50, 201, 138, 62, 129, 74, 0, 255, 164, 56, 0, 50, 136, 113, 156, 62, 0, 0, 0, 0, 50, 201, 138, 62, 129, 77, 0, 255, 164, 56, 0, 50, 240, 24, 159, 62, 0, 0, 0, 0, 248, 26, 137, 62, 129, 77, 0, 255, 164, 56, 128, 49, 240, 24, 159, 62, 0, 0, 0, 0, 248, 26, 137, 62, 129, 81, 0, 255, 164, 56, 128, 49, 163, 212, 161, 62, 0, 0, 0, 0, 152, 142, 135, 62, 129, 81, 0, 255, 164, 56, 0, 49, 163, 212, 161, 62, 0, 0, 0, 0, 152, 142, 135, 62, 129, 84, 0, 255, 164, 56, 0, 49, 239, 162, 164, 62, 0, 0, 0, 0, 9, 37, 134, 62, 129, 84, 0, 255, 164, 56, 128, 48, 239, 162, 164, 62, 0, 0, 0, 0, 9, 37, 134, 62, 129, 87, 0, 255, 164, 56, 128, 48, 28, 130, 167, 62, 0, 0, 0, 0, 39, 223, 132, 62, 129, 87, 0, 255, 164, 56, 0, 48, 28, 130, 167, 62, 0, 0, 0, 0, 39, 223, 132, 62, 129, 91, 0, 255, 164, 56, 0, 48, 101, 112, 170, 62, 0, 0, 0, 0, 188, 189, 131, 62, 129, 91, 0, 255, 164, 56, 0, 47, 101, 112, 170, 62, 0, 0, 0, 0, 188, 189, 131, 62, 129, 95, 0, 255, 164, 56, 0, 47, 248, 107, 173, 62, 0, 0, 0, 0, 124, 193, 130, 62, 129, 95, 0, 255, 164, 56, 0, 46, 248, 107, 173, 62, 0, 0, 0, 0, 124, 193, 130, 62, 129, 99, 0, 255, 164, 56, 0, 46, 2, 115, 176, 62, 0, 0, 0, 0, 1, 235, 129, 62, 129, 99, 0, 255, 164, 56, 0, 45, 2, 115, 176, 62, 0, 0, 0, 0, 1, 235, 129, 62, 129, 103, 0, 255, 164, 56, 0, 45, 163, 131, 179, 62, 0, 0, 0, 0, 207, 58, 129, 62, 129, 103, 0, 255, 164, 56, 0, 44, 163, 131, 179, 62, 0, 0, 0, 0, 207, 58, 129, 62, 129, 108, 0, 255, 164, 56, 0, 44, 248, 155, 182, 62, 0, 0, 0, 0, 84, 177, 128, 62, 129, 108, 0, 255, 164, 56, 0, 42, 248, 155, 182, 62, 0, 0, 0, 0, 84, 177, 128, 62, 129, 113, 0, 255, 164, 56, 0, 42, 21, 186, 185, 62, 0, 0, 0, 0, 228, 78, 128, 62, 129, 113, 0, 255, 164, 56, 0, 40, 21, 186, 185, 62, 0, 0, 0, 0, 228, 78, 128, 62, 129, 118, 0, 255, 164, 56, 0, 40, 18, 220, 188, 62, 0, 0, 0, 0, 187, 19, 128, 62, 129, 118, 0, 255, 164, 56, 0, 36, 18, 220, 188, 62, 0, 0, 0, 0, 187, 19, 128, 62, 129, 123, 0, 255, 164, 56, 0, 36, 255, 255, 255, 190, 0, 0, 0, 0, 0, 0, 0, 63, 130, 0, 0, 127, 32, 173, 252, 59, 255, 255, 255, 190, 0, 0, 0, 0, 0, 0, 0, 63, 0, 0, 127, 63, 0, 0, 80, 60, 0, 0, 0, 63, 0, 0, 0, 0, 0, 0, 0, 191, 127, 127, 0, 127, 32, 173, 9, 195, 0, 0, 0, 63, 0, 0, 0, 0, 0, 0, 0, 191, 127, 0, 0, 63, 0, 0, 50, 195, 255, 255, 127, 62, 10, 215, 163, 60, 0, 0, 0, 63, 129, 0, 0, 255, 0, 56, 0, 60, 255, 255, 127, 62, 10, 215, 163, 60, 0, 0, 0, 63, 0, 0, 129, 193, 0, 56, 0, 60, 255, 255, 127, 62, 10, 215, 163, 60, 0, 0, 0, 63, 0, 127, 129, 193, 0, 56, 0, 60, 255, 255, 191, 62, 10, 215, 163, 60, 0, 0, 0, 63, 0, 0, 129, 193, 0, 0, 0, 60, 255, 255, 191, 62, 10, 215, 163, 60, 0, 0, 0, 63, 0, 127, 129, 193, 0, 0, 0, 60, 255, 255, 191, 62, 10, 215, 163, 60, 0, 0, 0, 63, 127, 0, 0, 129, 0, 0, 0, 60, 116, 40, 173, 62, 10, 215, 163, 60, 151, 137, 191, 190, 0, 127, 5, 63, 0, 56, 206, 193, 116, 40, 173, 62, 10, 215, 163, 60, 151, 137, 191, 190, 0, 127, 10, 63, 0, 56, 206, 193, 116, 40, 173, 62, 10, 215, 163, 60, 151, 137, 191, 190, 3, 0, 0, 1, 0, 56, 206, 193, 116, 40, 173, 62, 10, 215, 163, 60, 151, 137, 191, 190, 8, 0, 0, 1, 0, 56, 206, 193, 255, 255, 191, 62, 10, 215, 163, 60, 255, 255, 191, 190, 0, 127, 4, 63, 0, 56, 5, 194, 255, 255, 191, 62, 10, 215, 163, 60, 255, 255, 191, 190, 0, 0, 0, 1, 0, 56, 5, 194, 255, 255, 191, 62, 10, 215, 163, 60, 255, 255, 191, 190, 0, 127, 0, 63, 0, 56, 248, 59, 255, 255, 191, 62, 10, 215, 163, 60, 255, 255, 191, 190, 3, 0, 0, 1, 0, 56, 5, 194, 255, 255, 191, 62, 10, 215, 163, 60, 255, 255, 191, 62, 0, 126, 126, 63, 0, 60, 0, 60, 255, 255, 191, 62, 10, 215, 163, 60, 255, 255, 191, 62, 0, 126, 126, 65, 0, 60, 0, 60, 255, 255, 191, 62, 10, 215, 163, 60, 255, 255, 191, 62, 0, 0, 0, 129, 0, 0, 4, 56, 255, 255, 191, 62, 10, 215, 163, 60, 255, 255, 191, 62, 0, 127, 123, 63, 0, 60, 0, 60, 255, 255, 191, 62, 10, 215, 163, 60, 255, 255, 191, 62, 0, 127, 127, 129, 0, 0, 4, 56, 255, 255, 191, 62, 10, 215, 163, 60, 255, 255, 191, 62, 0, 127, 120, 63, 0, 60, 0, 60, 255, 255, 191, 62, 10, 215, 163, 60, 255, 255, 191, 62, 0, 126, 125, 63, 0, 60, 0, 60, 255, 255, 191, 62, 10, 215, 163, 60, 255, 255, 191, 62, 127, 0, 0, 129, 0, 0, 4, 56, 0, 0, 192, 62, 10, 215, 163, 60, 0, 0, 0, 191, 129, 123, 0, 127, 0, 0, 5, 194, 0, 0, 192, 62, 10, 215, 163, 60, 0, 0, 0, 191, 0, 127, 0, 63, 0, 0, 5, 194, 0, 0, 192, 62, 10, 215, 163, 60, 0, 0, 0, 191, 127, 127, 0, 127, 0, 0, 5, 194, 0, 0, 192, 62, 10, 215, 163, 60, 0, 0, 0, 191, 0, 127, 0, 63, 0, 0, 248, 59, 0, 0, 0, 63, 10, 215, 163, 60, 255, 255, 191, 62, 0, 0, 0, 129, 0, 0, 0, 0, 0, 0, 0, 63, 10, 215, 163, 60, 255, 255, 191, 62, 0, 127, 127, 129, 0, 0, 0, 0, 0, 0, 0, 63, 10, 215, 163, 60, 255, 255, 191, 62, 127, 0, 127, 129, 0, 0, 0, 0, 0, 0, 0, 63, 10, 215, 163, 60, 255, 255, 191, 190, 0, 0, 0, 1, 0, 56, 9, 195, 0, 0, 0, 63, 10, 215, 163, 60, 255, 255, 191, 190, 0, 127, 0, 63, 0, 56, 192, 55, 0, 0, 0, 63, 10, 215, 163, 60, 255, 255, 191, 190, 127, 0, 0, 63, 0, 56, 9, 195, 254, 255, 127, 62, 10, 215, 163, 60, 255, 255, 191, 62, 129, 0, 0, 255, 0, 56, 4, 56, 254, 255, 127, 62, 10, 215, 163, 60, 255, 255, 191, 62, 129, 3, 0, 255, 0, 56, 4, 56, 254, 255, 127, 62, 10, 215, 163, 60, 255, 255, 191, 62, 0, 127, 129, 193, 0, 56, 4, 56, 254, 255, 127, 62, 10, 215, 163, 60, 255, 255, 191, 62, 0, 127, 127, 63, 24, 56, 0, 60, 0, 0, 0, 63, 10, 215, 163, 60, 254, 255, 127, 62, 127, 127, 0, 255, 0, 56, 0, 0, 0, 0, 0, 63, 10, 215, 163, 60, 254, 255, 127, 62, 0, 127, 127, 129, 0, 56, 0, 0, 0, 0, 0, 63, 10, 215, 163, 60, 254, 255, 127, 62, 127, 0, 127, 129, 0, 56, 0, 0, 255, 255, 191, 62, 10, 215, 163, 60, 254, 255, 127, 62, 129, 123, 0, 255, 0, 56, 0, 0, 255, 255, 191, 62, 10, 215, 163, 60, 254, 255, 127, 62, 127, 127, 0, 255, 0, 56, 4, 56, 255, 255, 191, 62, 10, 215, 163, 60, 254, 255, 127, 62, 0, 127, 127, 129, 0, 56, 4, 56, 255, 255, 191, 62, 10, 215, 163, 60, 254, 255, 127, 62, 0, 127, 120, 63, 0, 60, 28, 56, 224, 14, 31, 190, 10, 215, 163, 60, 214, 14, 31, 190, 0, 127, 63, 63, 0, 56, 18, 189, 224, 14, 31, 190, 10, 215, 163, 60, 214, 14, 31, 190, 0, 127, 65, 63, 0, 56, 18, 189, 224, 14, 31, 190, 10, 215, 163, 60, 214, 14, 31, 190, 61, 0, 0, 1, 0, 56, 18, 189, 224, 14, 31, 190, 10, 215, 163, 60, 214, 14, 31, 190, 65, 0, 1, 1, 0, 56, 18, 189, 88, 145, 121, 190, 10, 215, 163, 60, 80, 145, 121, 190, 129, 61, 0, 127, 0, 0, 18, 189, 88, 145, 121, 190, 10, 215, 163, 60, 80, 145, 121, 190, 129, 65, 0, 127, 0, 0, 18, 189, 88, 145, 121, 190, 10, 215, 163, 60, 80, 145, 121, 190, 0, 127, 60, 63, 0, 0, 18, 189, 88, 145, 121, 190, 10, 215, 163, 60, 80, 145, 121, 190, 0, 127, 63, 63, 0, 0, 18, 189, 144, 106, 56, 190, 10, 215, 163, 60, 8, 79, 154, 190, 129, 68, 0, 127, 0, 0, 244, 189, 144, 106, 56, 190, 10, 215, 163, 60, 8, 79, 154, 190, 129, 71, 0, 127, 0, 0, 244, 189, 144, 106, 56, 190, 10, 215, 163, 60, 8, 79, 154, 190, 0, 127, 54, 63, 0, 0, 244, 189, 144, 106, 56, 190, 10, 215, 163, 60, 8, 79, 154, 190, 0, 127, 57, 63, 0, 0, 244, 189, 136, 109, 206, 189, 10, 215, 163, 60, 18, 172, 81, 190, 0, 127, 57, 63, 0, 56, 244, 189, 136, 109, 206, 189, 10, 215, 163, 60, 18, 172, 81, 190, 0, 127, 59, 63, 0, 56, 244, 189, 136, 109, 206, 189, 10, 215, 163, 60, 18, 172, 81, 190, 55, 0, 0, 1, 0, 56, 244, 189, 136, 109, 206, 189, 10, 215, 163, 60, 18, 172, 81, 190, 58, 0, 0, 1, 0, 56, 244, 189, 224, 193, 3, 190, 10, 215, 163, 60, 238, 12, 57, 190, 0, 127, 62, 63, 0, 56, 130, 189, 224, 193, 3, 190, 10, 215, 163, 60, 238, 12, 57, 190, 0, 127, 60, 63, 0, 56, 130, 189, 224, 193, 3, 190, 10, 215, 163, 60, 238, 12, 57, 190, 58, 0, 0, 1, 0, 56, 130, 189, 224, 193, 3, 190, 10, 215, 163, 60, 238, 12, 57, 190, 61, 0, 0, 1, 0, 56, 130, 189, 132, 183, 89, 190, 10, 215, 163, 60, 54, 242, 139, 190, 129, 65, 0, 127, 0, 0, 130, 189, 132, 183, 89, 190, 10, 215, 163, 60, 54, 242, 139, 190, 129, 68, 0, 127, 0, 0, 130, 189, 132, 183, 89, 190, 10, 215, 163, 60, 54, 242, 139, 190, 0, 127, 60, 63, 0, 0, 130, 189, 132, 183, 89, 190, 10, 215, 163, 60, 54, 242, 139, 190, 0, 127, 57, 63, 0, 0, 130, 189, 44, 74, 38, 62, 10, 215, 163, 60, 242, 146, 242, 190, 129, 99, 0, 127, 0, 0, 243, 192, 44, 74, 38, 62, 10, 215, 163, 60, 242, 146, 242, 190, 129, 103, 0, 127, 0, 0, 243, 192, 44, 74, 38, 62, 10, 215, 163, 60, 242, 146, 242, 190, 0, 127, 25, 63, 0, 0, 243, 192, 44, 74, 38, 62, 10, 215, 163, 60, 242, 146, 242, 190, 0, 127, 21, 63, 0, 0, 243, 192, 37, 100, 69, 62, 10, 215, 163, 60, 245, 125, 180, 190, 0, 127, 28, 63, 0, 56, 243, 192, 37, 100, 69, 62, 10, 215, 163, 60, 245, 125, 180, 190, 0, 127, 25, 63, 0, 56, 243, 192, 37, 100, 69, 62, 10, 215, 163, 60, 245, 125, 180, 190, 23, 0, 0, 1, 0, 56, 243, 192, 37, 100, 69, 62, 10, 215, 163, 60, 245, 125, 180, 190, 27, 0, 0, 1, 0, 56, 243, 192, 2, 216, 187, 190, 10, 215, 163, 60, 207, 167, 135, 62, 0, 127, 110, 63, 0, 56, 48, 49, 2, 216, 187, 190, 10, 215, 163, 60, 207, 167, 135, 62, 0, 127, 114, 63, 0, 56, 48, 49, 2, 216, 187, 190, 10, 215, 163, 60, 207, 167, 135, 62, 108, 0, 0, 1, 0, 56, 48, 49, 2, 216, 187, 190, 10, 215, 163, 60, 207, 167, 135, 62, 113, 0, 0, 1, 0, 56, 48, 49, 172, 38, 251, 190, 10, 215, 163, 60, 142, 135, 124, 62, 129, 13, 0, 127, 0, 0, 48, 49, 172, 38, 251, 190, 10, 215, 163, 60, 142, 135, 124, 62, 129, 18, 0, 127, 0, 0, 48, 49, 172, 38, 251, 190, 10, 215, 163, 60, 142, 135, 124, 62, 0, 127, 106, 63, 0, 0, 48, 49, 172, 38, 251, 190, 10, 215, 163, 60, 142, 135, 124, 62, 0, 127, 110, 63, 0, 0, 48, 49, 64, 207, 247, 61, 10, 215, 163, 60, 146, 181, 236, 190, 129, 95, 0, 127, 0, 0, 187, 192, 64, 207, 247, 61, 10, 215, 163, 60, 146, 181, 236, 190, 129, 99, 0, 127, 0, 0, 187, 192, 64, 207, 247, 61, 10, 215, 163, 60, 146, 181, 236, 190, 0, 127, 26, 63, 0, 0, 187, 192, 64, 207, 247, 61, 10, 215, 163, 60, 146, 181, 236, 190, 0, 126, 29, 63, 0, 0, 187, 192, 174, 15, 33, 62, 10, 215, 163, 60, 17, 119, 175, 190, 0, 127, 29, 63, 0, 56, 187, 192, 174, 15, 33, 62, 10, 215, 163, 60, 17, 119, 175, 190, 0, 126, 32, 63, 0, 56, 187, 192, 174, 15, 33, 62, 10, 215, 163, 60, 17, 119, 175, 190, 27, 0, 0, 1, 0, 56, 187, 192, 174, 15, 33, 62, 10, 215, 163, 60, 17, 119, 175, 190, 31, 0, 0, 1, 0, 56, 187, 192, 148, 137, 250, 61, 10, 215, 163, 60, 143, 141, 169, 190, 0, 127, 36, 63, 0, 56, 132, 192, 148, 137, 250, 61, 10, 215, 163, 60, 143, 141, 169, 190, 0, 126, 33, 63, 0, 56, 132, 192, 148, 137, 250, 61, 10, 215, 163, 60, 143, 141, 169, 190, 31, 0, 0, 1, 0, 56, 132, 192, 148, 137, 250, 61, 10, 215, 163, 60, 143, 141, 169, 190, 35, 0, 0, 1, 0, 56, 132, 192, 48, 75, 164, 61, 10, 215, 163, 60, 210, 207, 229, 190, 129, 91, 0, 127, 0, 0, 132, 192, 48, 75, 164, 61, 10, 215, 163, 60, 210, 207, 229, 190, 129, 95, 0, 127, 0, 0, 132, 192, 48, 75, 164, 61, 10, 215, 163, 60, 210, 207, 229, 190, 0, 127, 33, 63, 0, 0, 132, 192, 48, 75, 164, 61, 10, 215, 163, 60, 210, 207, 229, 190, 0, 126, 30, 63, 0, 0, 132, 192, 179, 43, 106, 62, 10, 215, 163, 60, 31, 159, 184, 190, 0, 127, 21, 63, 0, 56, 42, 193, 179, 43, 106, 62, 10, 215, 163, 60, 31, 159, 184, 190, 0, 127, 24, 63, 0, 56, 42, 193, 179, 43, 106, 62, 10, 215, 163, 60, 31, 159, 184, 190, 18, 0, 0, 1, 0, 56, 42, 193, 179, 43, 106, 62, 10, 215, 163, 60, 31, 159, 184, 190, 23, 0, 0, 1, 0, 56, 42, 193, 252, 50, 81, 62, 10, 215, 163, 60, 80, 100, 247, 190, 129, 103, 0, 127, 0, 0, 42, 193, 252, 50, 81, 62, 10, 215, 163, 60, 80, 100, 247, 190, 129, 108, 0, 127, 0, 0, 42, 193, 252, 50, 81, 62, 10, 215, 163, 60, 80, 100, 247, 190, 0, 127, 17, 63, 0, 0, 42, 193, 252, 50, 81, 62, 10, 215, 163, 60, 80, 100, 247, 190, 0, 127, 21, 63, 0, 0, 42, 193, 46, 242, 139, 190, 10, 215, 163, 60, 140, 183, 89, 190, 129, 58, 254, 123, 0, 0, 160, 188, 46, 242, 139, 190, 10, 215, 163, 60, 140, 183, 89, 190, 129, 61, 254, 124, 0, 0, 160, 188, 46, 242, 139, 190, 10, 215, 163, 60, 140, 183, 89, 190, 0, 127, 66, 63, 0, 0, 160, 188, 46, 242, 139, 190, 10, 215, 163, 60, 140, 183, 89, 190, 0, 127, 64, 63, 0, 0, 160, 188, 228, 12, 57, 190, 10, 215, 163, 60, 230, 193, 3, 190, 0, 127, 69, 63, 0, 56, 160, 188, 228, 12, 57, 190, 10, 215, 163, 60, 230, 193, 3, 190, 0, 127, 66, 63, 0, 56, 160, 188, 228, 12, 57, 190, 10, 215, 163, 60, 230, 193, 3, 190, 65, 0, 5, 1, 0, 56, 160, 188, 228, 12, 57, 190, 10, 215, 163, 60, 230, 193, 3, 190, 68, 0, 3, 1, 0, 56, 160, 188, 238, 146, 242, 190, 10, 215, 163, 60, 31, 74, 38, 62, 129, 23, 255, 124, 0, 0, 64, 171, 238, 146, 242, 190, 10, 215, 163, 60, 31, 74, 38, 62, 129, 27, 0, 124, 0, 0, 64, 171, 238, 146, 242, 190, 10, 215, 163, 60, 31, 74, 38, 62, 0, 127, 101, 63, 0, 0, 64, 171, 238, 146, 242, 190, 10, 215, 163, 60, 31, 74, 38, 62, 0, 127, 98, 63, 0, 0, 64, 171, 242, 125, 180, 190, 10, 215, 163, 60, 26, 100, 69, 62, 0, 127, 104, 63, 0, 56, 64, 171, 242, 125, 180, 190, 10, 215, 163, 60, 26, 100, 69, 62, 0, 127, 101, 63, 0, 56, 64, 171, 242, 125, 180, 190, 10, 215, 163, 60, 26, 100, 69, 62, 99, 0, 5, 1, 0, 56, 64, 171, 242, 125, 180, 190, 10, 215, 163, 60, 26, 100, 69, 62, 103, 0, 3, 1, 0, 56, 64, 171, 28, 159, 184, 190, 10, 215, 163, 60, 168, 43, 106, 62, 0, 127, 105, 63, 0, 56, 192, 42, 28, 159, 184, 190, 10, 215, 163, 60, 168, 43, 106, 62, 0, 127, 109, 63, 0, 56, 192, 42, 28, 159, 184, 190, 10, 215, 163, 60, 168, 43, 106, 62, 103, 0, 0, 1, 0, 56, 192, 42, 28, 159, 184, 190, 10, 215, 163, 60, 168, 43, 106, 62, 108, 0, 0, 1, 0, 56, 192, 42, 74, 100, 247, 190, 10, 215, 163, 60, 239, 50, 81, 62, 129, 18, 0, 127, 0, 0, 192, 42, 74, 100, 247, 190, 10, 215, 163, 60, 239, 50, 81, 62, 129, 23, 0, 126, 0, 0, 192, 42, 74, 100, 247, 190, 10, 215, 163, 60, 239, 50, 81, 62, 0, 127, 102, 63, 0, 0, 192, 42, 74, 100, 247, 190, 10, 215, 163, 60, 239, 50, 81, 62, 0, 127, 105, 63, 0, 0, 192, 42, 212, 167, 135, 62, 10, 215, 163, 60, 5, 216, 187, 190, 0, 127, 18, 63, 0, 56, 97, 193, 212, 167, 135, 62, 10, 215, 163, 60, 5, 216, 187, 190, 13, 0, 0, 1, 0, 56, 97, 193, 212, 167, 135, 62, 10, 215, 163, 60, 5, 216, 187, 190, 18, 0, 0, 1, 0, 56, 97, 193, 154, 135, 124, 62, 10, 215, 163, 60, 174, 38, 251, 190, 129, 108, 0, 127, 0, 0, 97, 193, 154, 135, 124, 62, 10, 215, 163, 60, 174, 38, 251, 190, 129, 113, 0, 127, 0, 0, 97, 193, 154, 135, 124, 62, 10, 215, 163, 60, 174, 38, 251, 190, 0, 127, 14, 63, 0, 0, 97, 193, 4, 79, 154, 190, 10, 215, 163, 60, 156, 106, 56, 190, 129, 55, 0, 127, 0, 0, 46, 188, 4, 79, 154, 190, 10, 215, 163, 60, 156, 106, 56, 190, 129, 58, 0, 126, 0, 0, 46, 188, 4, 79, 154, 190, 10, 215, 163, 60, 156, 106, 56, 190, 0, 127, 69, 63, 0, 0, 46, 188, 4, 79, 154, 190, 10, 215, 163, 60, 156, 106, 56, 190, 0, 127, 67, 63, 0, 0, 46, 188, 8, 172, 81, 190, 10, 215, 163, 60, 160, 109, 206, 189, 0, 127, 72, 63, 0, 56, 46, 188, 8, 172, 81, 190, 10, 215, 163, 60, 160, 109, 206, 189, 0, 127, 69, 63, 0, 56, 46, 188, 8, 172, 81, 190, 10, 215, 163, 60, 160, 109, 206, 189, 68, 0, 0, 1, 0, 56, 46, 188, 8, 172, 81, 190, 10, 215, 163, 60, 160, 109, 206, 189, 71, 0, 0, 1, 0, 56, 46, 188, 206, 207, 229, 190, 10, 215, 163, 60, 20, 75, 164, 61, 129, 31, 255, 124, 0, 0, 104, 180, 206, 207, 229, 190, 10, 215, 163, 60, 20, 75, 164, 61, 129, 35, 255, 124, 0, 0, 104, 180, 206, 207, 229, 190, 10, 215, 163, 60, 20, 75, 164, 61, 0, 127, 90, 63, 0, 0, 104, 180, 206, 207, 229, 190, 10, 215, 163, 60, 20, 75, 164, 61, 0, 127, 93, 63, 0, 0, 104, 180, 140, 141, 169, 190, 10, 215, 163, 60, 124, 137, 250, 61, 0, 127, 93, 63, 0, 56, 104, 180, 140, 141, 169, 190, 10, 215, 163, 60, 124, 137, 250, 61, 0, 127, 96, 63, 0, 56, 104, 180, 140, 141, 169, 190, 10, 215, 163, 60, 124, 137, 250, 61, 91, 0, 5, 1, 0, 56, 104, 180, 140, 141, 169, 190, 10, 215, 163, 60, 124, 137, 250, 61, 95, 0, 3, 1, 0, 56, 104, 180, 16, 119, 175, 190, 10, 215, 163, 60, 185, 15, 33, 62, 0, 127, 100, 63, 0, 56, 64, 177, 16, 119, 175, 190, 10, 215, 163, 60, 185, 15, 33, 62, 0, 127, 97, 63, 0, 56, 64, 177, 16, 119, 175, 190, 10, 215, 163, 60, 185, 15, 33, 62, 95, 0, 0, 1, 0, 56, 64, 177, 16, 119, 175, 190, 10, 215, 163, 60, 185, 15, 33, 62, 99, 0, 1, 1, 0, 56, 64, 177, 146, 181, 236, 190, 10, 215, 163, 60, 92, 207, 247, 61, 129, 27, 0, 127, 0, 0, 64, 177, 146, 181, 236, 190, 10, 215, 163, 60, 92, 207, 247, 61, 129, 31, 0, 126, 0, 0, 64, 177, 146, 181, 236, 190, 10, 215, 163, 60, 92, 207, 247, 61, 0, 127, 97, 63, 0, 0, 64, 177, 146, 181, 236, 190, 10, 215, 163, 60, 92, 207, 247, 61, 0, 127, 94, 63, 0, 0, 64, 177, 112, 118, 36, 61, 10, 215, 163, 60, 232, 229, 221, 190, 129, 87, 0, 127, 0, 0, 75, 192, 112, 118, 36, 61, 10, 215, 163, 60, 232, 229, 221, 190, 129, 91, 0, 127, 0, 0, 75, 192, 112, 118, 36, 61, 10, 215, 163, 60, 232, 229, 221, 190, 0, 127, 34, 63, 0, 0, 75, 192, 112, 118, 36, 61, 10, 215, 163, 60, 232, 229, 221, 190, 0, 127, 37, 63, 0, 0, 75, 192, 192, 50, 180, 61, 10, 215, 163, 60, 15, 197, 162, 190, 0, 127, 37, 63, 0, 56, 75, 192, 192, 50, 180, 61, 10, 215, 163, 60, 15, 197, 162, 190, 0, 127, 40, 63, 0, 56, 75, 192, 192, 50, 180, 61, 10, 215, 163, 60, 15, 197, 162, 190, 35, 0, 0, 1, 0, 56, 75, 192, 192, 50, 180, 61, 10, 215, 163, 60, 15, 197, 162, 190, 39, 0, 0, 1, 0, 56, 75, 192, 131, 92, 154, 62, 10, 215, 163, 60, 165, 38, 190, 190, 0, 127, 15, 63, 0, 56, 151, 193, 131, 92, 154, 62, 10, 215, 163, 60, 165, 38, 190, 190, 0, 127, 11, 63, 0, 56, 151, 193, 131, 92, 154, 62, 10, 215, 163, 60, 165, 38, 190, 190, 8, 0, 0, 1, 0, 56, 151, 193, 131, 92, 154, 62, 10, 215, 163, 60, 165, 38, 190, 190, 13, 0, 0, 1, 0, 56, 151, 193, 153, 22, 148, 62, 10, 215, 163, 60, 190, 215, 253, 190, 129, 113, 0, 127, 0, 0, 151, 193, 153, 22, 148, 62, 10, 215, 163, 60, 190, 215, 253, 190, 129, 118, 0, 127, 0, 0, 151, 193, 153, 22, 148, 62, 10, 215, 163, 60, 190, 215, 253, 190, 0, 127, 11, 63, 0, 0, 151, 193, 153, 22, 148, 62, 10, 215, 163, 60, 190, 215, 253, 190, 0, 127, 6, 63, 0, 0, 151, 193, 12, 197, 162, 190, 10, 215, 163, 60, 172, 50, 180, 61, 0, 127, 89, 63, 0, 56, 32, 182, 12, 197, 162, 190, 10, 215, 163, 60, 172, 50, 180, 61, 0, 127, 92, 63, 0, 56, 32, 182, 12, 197, 162, 190, 10, 215, 163, 60, 172, 50, 180, 61, 87, 0, 0, 1, 0, 56, 32, 182, 12, 197, 162, 190, 10, 215, 163, 60, 172, 50, 180, 61, 91, 0, 1, 1, 0, 56, 32, 182, 226, 229, 221, 190, 10, 215, 163, 60, 64, 118, 36, 61, 129, 35, 0, 127, 0, 0, 32, 182, 226, 229, 221, 190, 10, 215, 163, 60, 64, 118, 36, 61, 129, 39, 0, 127, 0, 0, 32, 182, 226, 229, 221, 190, 10, 215, 163, 60, 64, 118, 36, 61, 0, 127, 86, 63, 0, 0, 32, 182, 226, 229, 221, 190, 10, 215, 163, 60, 64, 118, 36, 61, 0, 127, 89, 63, 0, 0, 32, 182, 0, 26, 105, 58, 10, 215, 163, 60, 186, 252, 212, 190, 129, 84, 0, 127, 0, 0, 20, 192, 0, 26, 105, 58, 10, 215, 163, 60, 186, 252, 212, 190, 129, 87, 0, 127, 0, 0, 20, 192, 0, 26, 105, 58, 10, 215, 163, 60, 186, 252, 212, 190, 0, 127, 40, 63, 0, 0, 20, 192, 0, 26, 105, 58, 10, 215, 163, 60, 186, 252, 212, 190, 0, 127, 37, 63, 0, 0, 20, 192, 232, 140, 94, 61, 10, 215, 163, 60, 195, 33, 155, 190, 0, 127, 43, 63, 0, 56, 20, 192, 232, 140, 94, 61, 10, 215, 163, 60, 195, 33, 155, 190, 0, 127, 40, 63, 0, 56, 20, 192, 232, 140, 94, 61, 10, 215, 163, 60, 195, 33, 155, 190, 39, 0, 0, 1, 0, 56, 20, 192, 232, 140, 94, 61, 10, 215, 163, 60, 195, 33, 155, 190, 42, 0, 0, 1, 0, 56, 20, 192, 190, 215, 253, 190, 10, 215, 163, 60, 161, 22, 148, 62, 129, 8, 0, 127, 0, 0, 80, 52, 190, 215, 253, 190, 10, 215, 163, 60, 161, 22, 148, 62, 129, 13, 0, 127, 0, 0, 80, 52, 190, 215, 253, 190, 10, 215, 163, 60, 161, 22, 148, 62, 0, 127, 115, 63, 0, 0, 80, 52, 190, 215, 253, 190, 10, 215, 163, 60, 161, 22, 148, 62, 0, 127, 111, 63, 0, 0, 80, 52, 164, 38, 190, 190, 10, 215, 163, 60, 138, 92, 154, 62, 0, 127, 119, 63, 0, 56, 80, 52, 164, 38, 190, 190, 10, 215, 163, 60, 138, 92, 154, 62, 0, 127, 115, 63, 0, 56, 80, 52, 164, 38, 190, 190, 10, 215, 163, 60, 138, 92, 154, 62, 113, 0, 0, 1, 0, 56, 80, 52, 164, 38, 190, 190, 10, 215, 163, 60, 138, 92, 154, 62, 118, 0, 0, 1, 0, 56, 80, 52, 64, 182, 42, 189, 10, 215, 163, 60, 150, 145, 126, 190, 0, 127, 52, 63, 0, 56, 214, 190, 64, 182, 42, 189, 10, 215, 163, 60, 150, 145, 126, 190, 49, 0, 0, 1, 0, 56, 214, 190, 64, 182, 42, 189, 10, 215, 163, 60, 150, 145, 126, 190, 52, 0, 0, 1, 0, 56, 214, 190, 64, 75, 45, 188, 10, 215, 163, 60, 41, 94, 137, 190, 0, 127, 48, 63, 0, 56, 68, 191, 64, 75, 45, 188, 10, 215, 163, 60, 41, 94, 137, 190, 45, 0, 0, 1, 0, 56, 68, 191, 64, 75, 45, 188, 10, 215, 163, 60, 41, 94, 137, 190, 49, 0, 0, 1, 0, 56, 68, 191, 48, 124, 25, 189, 10, 215, 163, 60, 206, 25, 203, 190, 129, 81, 0, 127, 0, 0, 182, 191, 48, 124, 25, 189, 10, 215, 163, 60, 206, 25, 203, 190, 129, 84, 0, 127, 0, 0, 182, 191, 48, 124, 25, 189, 10, 215, 163, 60, 206, 25, 203, 190, 0, 127, 41, 63, 0, 0, 182, 191, 48, 124, 25, 189, 10, 215, 163, 60, 206, 25, 203, 190, 0, 127, 44, 63, 0, 0, 182, 191, 96, 189, 175, 60, 10, 215, 163, 60, 103, 168, 146, 190, 0, 127, 44, 63, 0, 56, 182, 191, 96, 189, 175, 60, 10, 215, 163, 60, 103, 168, 146, 190, 0, 127, 46, 63, 0, 56, 182, 191, 96, 189, 175, 60, 10, 215, 163, 60, 103, 168, 146, 190, 42, 0, 0, 1, 0, 56, 182, 191, 96, 189, 175, 60, 10, 215, 163, 60, 103, 168, 146, 190, 45, 0, 0, 1, 0, 56, 182, 191, 160, 69, 153, 189, 10, 215, 163, 60, 46, 67, 192, 190, 129, 77, 0, 127, 0, 0, 68, 191, 160, 69, 153, 189, 10, 215, 163, 60, 46, 67, 192, 190, 129, 81, 0, 127, 0, 0, 68, 191, 160, 69, 153, 189, 10, 215, 163, 60, 46, 67, 192, 190, 0, 127, 46, 63, 0, 0, 68, 191, 216, 117, 255, 190, 10, 215, 163, 60, 130, 4, 170, 62, 129, 3, 0, 127, 0, 0, 8, 54, 216, 117, 255, 190, 10, 215, 163, 60, 130, 4, 170, 62, 129, 8, 0, 127, 0, 0, 8, 54, 216, 117, 255, 190, 10, 215, 163, 60, 130, 4, 170, 62, 0, 127, 116, 63, 0, 0, 8, 54, 216, 117, 255, 190, 10, 215, 163, 60, 130, 4, 170, 62, 0, 127, 121, 63, 0, 0, 8, 54, 150, 137, 191, 190, 10, 215, 163, 60, 111, 40, 173, 62, 0, 127, 121, 63, 0, 56, 8, 54, 150, 137, 191, 190, 10, 215, 163, 60, 111, 40, 173, 62, 0, 127, 125, 63, 0, 56, 8, 54, 150, 137, 191, 190, 10, 215, 163, 60, 111, 40, 173, 62, 118, 0, 0, 1, 0, 56, 8, 54, 150, 137, 191, 190, 10, 215, 163, 60, 111, 40, 173, 62, 123, 0, 0, 1, 0, 56, 8, 54, 0, 0, 192, 190, 10, 215, 163, 60, 255, 255, 191, 62, 0, 127, 127, 63, 0, 56, 192, 55, 0, 0, 192, 190, 10, 215, 163, 60, 255, 255, 191, 62, 0, 127, 127, 63, 0, 56, 192, 55, 0, 0, 192, 190, 10, 215, 163, 60, 255, 255, 191, 62, 123, 0, 0, 1, 0, 56, 192, 55, 0, 0, 192, 190, 10, 215, 163, 60, 255, 255, 191, 62, 127, 0, 0, 1, 0, 56, 192, 55, 0, 0, 0, 191, 10, 215, 163, 60, 255, 255, 191, 62, 130, 0, 0, 127, 0, 0, 192, 55, 0, 0, 0, 191, 10, 215, 163, 60, 255, 255, 191, 62, 129, 3, 0, 127, 0, 0, 192, 55, 0, 0, 0, 191, 10, 215, 163, 60, 255, 255, 191, 62, 0, 127, 127, 63, 0, 0, 192, 55, 0, 0, 0, 191, 10, 215, 163, 60, 255, 255, 191, 62, 0, 127, 122, 63, 0, 0, 192, 55, 152, 145, 126, 190, 10, 215, 163, 60, 24, 182, 42, 189, 0, 127, 77, 63, 0, 56, 152, 186, 152, 145, 126, 190, 10, 215, 163, 60, 24, 182, 42, 189, 74, 0, 0, 1, 0, 56, 152, 186, 152, 145, 126, 190, 10, 215, 163, 60, 24, 182, 42, 189, 77, 0, 0, 1, 0, 56, 152, 186, 8, 221, 104, 190, 10, 215, 163, 60, 124, 254, 146, 189, 0, 127, 74, 63, 0, 56, 120, 187, 8, 221, 104, 190, 10, 215, 163, 60, 124, 254, 146, 189, 71, 0, 0, 1, 0, 56, 120, 187, 8, 221, 104, 190, 10, 215, 163, 60, 124, 254, 146, 189, 74, 0, 0, 1, 0, 56, 120, 187, 38, 94, 137, 190, 10, 215, 163, 60, 192, 75, 45, 188, 0, 127, 80, 63, 0, 56, 184, 185, 38, 94, 137, 190, 10, 215, 163, 60, 192, 75, 45, 188, 77, 0, 0, 1, 0, 56, 184, 185, 38, 94, 137, 190, 10, 215, 163, 60, 192, 75, 45, 188, 81, 0, 0, 1, 0, 56, 184, 185, 44, 67, 192, 190, 10, 215, 163, 60, 180, 69, 153, 189, 129, 45, 0, 127, 0, 0, 184, 185, 44, 67, 192, 190, 10, 215, 163, 60, 180, 69, 153, 189, 129, 49, 0, 127, 0, 0, 184, 185, 44, 67, 192, 190, 10, 215, 163, 60, 180, 69, 153, 189, 0, 127, 78, 63, 0, 0, 184, 185, 100, 168, 146, 190, 10, 215, 163, 60, 0, 189, 175, 60, 0, 127, 82, 63, 0, 56, 212, 184, 100, 168, 146, 190, 10, 215, 163, 60, 0, 189, 175, 60, 0, 127, 85, 63, 0, 56, 212, 184, 100, 168, 146, 190, 10, 215, 163, 60, 0, 189, 175, 60, 81, 0, 0, 1, 0, 56, 212, 184, 100, 168, 146, 190, 10, 215, 163, 60, 0, 189, 175, 60, 84, 0, 0, 1, 0, 56, 212, 184, 135, 4, 170, 62, 10, 215, 163, 60, 220, 117, 255, 190, 129, 118, 0, 127, 0, 0, 206, 193, 135, 4, 170, 62, 10, 215, 163, 60, 220, 117, 255, 190, 129, 123, 0, 127, 0, 0, 206, 193, 135, 4, 170, 62, 10, 215, 163, 60, 220, 117, 255, 190, 0, 127, 1, 63, 0, 0, 206, 193, 135, 4, 170, 62, 10, 215, 163, 60, 220, 117, 255, 190, 0, 127, 5, 63, 0, 0, 206, 193, 198, 33, 155, 190, 10, 215, 163, 60, 24, 141, 94, 61, 0, 127, 89, 63, 0, 56, 232, 183, 198, 33, 155, 190, 10, 215, 163, 60, 24, 141, 94, 61, 0, 127, 86, 63, 0, 56, 232, 183, 198, 33, 155, 190, 10, 215, 163, 60, 24, 141, 94, 61, 84, 0, 0, 1, 0, 56, 232, 183, 198, 33, 155, 190, 10, 215, 163, 60, 24, 141, 94, 61, 87, 0, 0, 1, 0, 56, 232, 183, 68, 214, 167, 190, 10, 215, 163, 60, 28, 191, 21, 190, 129, 52, 0, 127, 0, 0, 120, 187, 68, 214, 167, 190, 10, 215, 163, 60, 28, 191, 21, 190, 129, 55, 0, 127, 0, 0, 120, 187, 68, 214, 167, 190, 10, 215, 163, 60, 28, 191, 21, 190, 0, 127, 71, 63, 0, 0, 120, 187, 152, 127, 180, 190, 10, 215, 163, 60, 224, 148, 227, 189, 129, 49, 0, 127, 0, 0, 152, 186, 152, 127, 180, 190, 10, 215, 163, 60, 224, 148, 227, 189, 129, 52, 0, 127, 0, 0, 152, 186, 152, 127, 180, 190, 10, 215, 163, 60, 224, 148, 227, 189, 0, 127, 74, 63, 0, 0, 152, 186, 248, 148, 227, 189, 10, 215, 163, 60, 152, 127, 180, 190, 129, 74, 0, 127, 0, 0, 214, 190, 248, 148, 227, 189, 10, 215, 163, 60, 152, 127, 180, 190, 129, 77, 0, 127, 0, 0, 214, 190, 248, 148, 227, 189, 10, 215, 163, 60, 152, 127, 180, 190, 0, 127, 49, 63, 0, 0, 214, 190, 144, 254, 146, 189, 10, 215, 163, 60, 2, 221, 104, 190, 0, 127, 56, 63, 0, 56, 100, 190, 144, 254, 146, 189, 10, 215, 163, 60, 2, 221, 104, 190, 0, 127, 54, 63, 0, 56, 100, 190, 144, 254, 146, 189, 10, 215, 163, 60, 2, 221, 104, 190, 52, 0, 0, 1, 0, 56, 100, 190, 144, 254, 146, 189, 10, 215, 163, 60, 2, 221, 104, 190, 55, 0, 0, 1, 0, 56, 100, 190, 40, 191, 21, 190, 10, 215, 163, 60, 64, 214, 167, 190, 129, 71, 0, 127, 0, 0, 100, 190, 40, 191, 21, 190, 10, 215, 163, 60, 64, 214, 167, 190, 129, 74, 0, 127, 0, 0, 100, 190, 40, 191, 21, 190, 10, 215, 163, 60, 64, 214, 167, 190, 0, 127, 54, 63, 0, 0, 100, 190, 40, 191, 21, 190, 10, 215, 163, 60, 64, 214, 167, 190, 0, 127, 51, 63, 0, 0, 100, 190, 202, 25, 203, 190, 10, 215, 163, 60, 104, 124, 25, 189, 129, 42, 0, 127, 0, 0, 212, 184, 202, 25, 203, 190, 10, 215, 163, 60, 104, 124, 25, 189, 129, 45, 0, 127, 0, 0, 212, 184, 202, 25, 203, 190, 10, 215, 163, 60, 104, 124, 25, 189, 0, 127, 80, 63, 0, 0, 212, 184, 202, 25, 203, 190, 10, 215, 163, 60, 104, 124, 25, 189, 0, 127, 82, 63, 0, 0, 212, 184, 188, 252, 212, 190, 10, 215, 163, 60, 0, 40, 105, 58, 129, 39, 0, 127, 0, 0, 232, 183, 188, 252, 212, 190, 10, 215, 163, 60, 0, 40, 105, 58, 129, 42, 0, 127, 0, 0, 232, 183, 188, 252, 212, 190, 10, 215, 163, 60, 0, 40, 105, 58, 0, 127, 86, 63, 0, 0, 232, 183, 188, 252, 212, 190, 10, 215, 163, 60, 0, 40, 105, 58, 0, 127, 83, 63, 0, 0, 232, 183, 255, 255, 191, 190, 10, 215, 163, 60, 0, 0, 0, 63, 0, 0, 127, 63, 0, 56, 252, 59, 255, 255, 191, 190, 10, 215, 163, 60, 0, 0, 0, 63, 0, 127, 127, 63, 0, 56, 252, 59, 255, 255, 191, 190, 10, 215, 163, 60, 0, 0, 0, 63, 127, 0, 0, 1, 0, 56, 252, 59, 188, 19, 128, 62, 10, 215, 163, 60, 18, 220, 188, 62, 129, 3, 0, 255, 0, 56, 200, 55, 188, 19, 128, 62, 10, 215, 163, 60, 18, 220, 188, 62, 129, 8, 0, 255, 0, 56, 200, 55, 188, 19, 128, 62, 10, 215, 163, 60, 18, 220, 188, 62, 0, 127, 126, 63, 24, 56, 208, 59, 228, 78, 128, 62, 10, 215, 163, 60, 22, 186, 185, 62, 129, 8, 0, 255, 0, 56, 136, 55, 228, 78, 128, 62, 10, 215, 163, 60, 22, 186, 185, 62, 129, 13, 0, 255, 0, 56, 136, 55, 228, 78, 128, 62, 10, 215, 163, 60, 22, 186, 185, 62, 0, 127, 126, 63, 32, 56, 160, 59, 84, 177, 128, 62, 10, 215, 163, 60, 247, 155, 182, 62, 129, 13, 0, 255, 0, 56, 72, 55, 84, 177, 128, 62, 10, 215, 163, 60, 247, 155, 182, 62, 129, 18, 0, 255, 0, 56, 72, 55, 84, 177, 128, 62, 10, 215, 163, 60, 247, 155, 182, 62, 0, 127, 126, 63, 36, 56, 104, 59, 208, 58, 129, 62, 10, 215, 163, 60, 162, 131, 179, 62, 129, 18, 0, 255, 0, 56, 8, 55, 208, 58, 129, 62, 10, 215, 163, 60, 162, 131, 179, 62, 129, 23, 0, 255, 0, 56, 8, 55, 208, 58, 129, 62, 10, 215, 163, 60, 162, 131, 179, 62, 0, 127, 127, 63, 48, 56, 56, 59, 2, 235, 129, 62, 10, 215, 163, 60, 1, 115, 176, 62, 129, 23, 0, 255, 0, 56, 200, 54, 2, 235, 129, 62, 10, 215, 163, 60, 1, 115, 176, 62, 129, 27, 0, 255, 0, 56, 200, 54, 2, 235, 129, 62, 10, 215, 163, 60, 1, 115, 176, 62, 0, 127, 127, 65, 60, 56, 8, 59, 124, 193, 130, 62, 10, 215, 163, 60, 249, 107, 173, 62, 129, 27, 0, 255, 0, 56, 136, 54, 124, 193, 130, 62, 10, 215, 163, 60, 249, 107, 173, 62, 129, 31, 0, 255, 0, 56, 136, 54, 124, 193, 130, 62, 10, 215, 163, 60, 249, 107, 173, 62, 0, 127, 126, 63, 68, 56, 224, 58, 189, 189, 131, 62, 10, 215, 163, 60, 100, 112, 170, 62, 129, 31, 0, 255, 0, 56, 72, 54, 189, 189, 131, 62, 10, 215, 163, 60, 100, 112, 170, 62, 129, 35, 0, 255, 0, 56, 72, 54, 189, 189, 131, 62, 10, 215, 163, 60, 100, 112, 170, 62, 0, 127, 123, 63, 76, 56, 168, 58, 40, 223, 132, 62, 10, 215, 163, 60, 28, 130, 167, 62, 129, 35, 0, 255, 0, 56, 8, 54, 40, 223, 132, 62, 10, 215, 163, 60, 28, 130, 167, 62, 129, 39, 0, 255, 0, 56, 8, 54, 40, 223, 132, 62, 10, 215, 163, 60, 28, 130, 167, 62, 0, 127, 127, 66, 96, 56, 120, 58, 40, 223, 132, 62, 10, 215, 163, 60, 28, 130, 167, 62, 0, 127, 125, 63, 96, 56, 120, 58, 9, 37, 134, 62, 10, 215, 163, 60, 240, 162, 164, 62, 129, 39, 0, 255, 0, 56, 200, 53, 9, 37, 134, 62, 10, 215, 163, 60, 240, 162, 164, 62, 129, 42, 0, 255, 0, 56, 200, 53, 9, 37, 134, 62, 10, 215, 163, 60, 240, 162, 164, 62, 0, 127, 127, 66, 108, 56, 80, 58, 9, 37, 134, 62, 10, 215, 163, 60, 240, 162, 164, 62, 0, 127, 123, 63, 108, 56, 80, 58, 153, 142, 135, 62, 10, 215, 163, 60, 162, 212, 161, 62, 129, 42, 0, 255, 0, 56, 136, 53, 153, 142, 135, 62, 10, 215, 163, 60, 162, 212, 161, 62, 129, 45, 0, 255, 0, 56, 136, 53, 153, 142, 135, 62, 10, 215, 163, 60, 162, 212, 161, 62, 0, 127, 124, 63, 132, 56, 32, 58, 249, 26, 137, 62, 10, 215, 163, 60, 240, 24, 159, 62, 129, 45, 0, 255, 0, 56, 72, 53, 249, 26, 137, 62, 10, 215, 163, 60, 240, 24, 159, 62, 129, 49, 0, 255, 0, 56, 72, 53, 249, 26, 137, 62, 10, 215, 163, 60, 240, 24, 159, 62, 0, 127, 127, 64, 148, 56, 244, 57, 50, 201, 138, 62, 10, 215, 163, 60, 137, 113, 156, 62, 129, 49, 0, 255, 0, 56, 8, 53, 50, 201, 138, 62, 10, 215, 163, 60, 137, 113, 156, 62, 129, 52, 0, 255, 0, 56, 8, 53, 50, 201, 138, 62, 10, 215, 163, 60, 137, 113, 156, 62, 0, 127, 127, 64, 180, 56, 204, 57, 62, 152, 140, 62, 10, 215, 163, 60, 15, 224, 153, 62, 129, 52, 0, 255, 0, 56, 200, 52, 62, 152, 140, 62, 10, 215, 163, 60, 15, 224, 153, 62, 129, 55, 0, 255, 0, 56, 200, 52, 62, 152, 140, 62, 10, 215, 163, 60, 15, 224, 153, 62, 0, 127, 124, 63, 204, 56, 164, 57, 254, 134, 142, 62, 10, 215, 163, 60, 24, 102, 151, 62, 129, 55, 0, 255, 0, 56, 136, 52, 254, 134, 142, 62, 10, 215, 163, 60, 24, 102, 151, 62, 129, 58, 0, 255, 0, 56, 136, 52, 254, 134, 142, 62, 10, 215, 163, 60, 24, 102, 151, 62, 0, 127, 127, 64, 232, 56, 120, 57, 66, 148, 144, 62, 10, 215, 163, 60, 44, 5, 149, 62, 129, 58, 0, 255, 0, 56, 72, 52, 66, 148, 144, 62, 10, 215, 163, 60, 44, 5, 149, 62, 129, 61, 0, 255, 0, 56, 72, 52, 66, 148, 144, 62, 10, 215, 163, 60, 44, 5, 149, 62, 0, 127, 127, 66, 12, 57, 88, 57, 194, 190, 146, 62, 10, 215, 163, 60, 194, 190, 146, 62, 129, 61, 0, 255, 0, 56, 0, 52, 194, 190, 146, 62, 10, 215, 163, 60, 194, 190, 146, 62, 129, 65, 0, 255, 0, 56, 0, 52, 194, 190, 146, 62, 10, 215, 163, 60, 194, 190, 146, 62, 0, 126, 126, 65, 48, 57, 52, 57, 194, 190, 146, 62, 10, 215, 163, 60, 194, 190, 146, 62, 0, 127, 126, 63, 48, 57, 52, 57, 44, 5, 149, 62, 10, 215, 163, 60, 64, 148, 144, 62, 129, 65, 0, 255, 0, 56, 128, 51, 44, 5, 149, 62, 10, 215, 163, 60, 64, 148, 144, 62, 129, 68, 0, 255, 0, 56, 128, 51, 44, 5, 149, 62, 10, 215, 163, 60, 64, 148, 144, 62, 0, 126, 126, 65, 80, 57, 20, 57, 44, 5, 149, 62, 10, 215, 163, 60, 64, 148, 144, 62, 0, 127, 120, 63, 80, 57, 20, 57, 26, 102, 151, 62, 10, 215, 163, 60, 254, 134, 142, 62, 129, 68, 0, 255, 0, 56, 0, 51, 26, 102, 151, 62, 10, 215, 163, 60, 254, 134, 142, 62, 129, 71, 0, 255, 0, 56, 0, 51, 26, 102, 151, 62, 10, 215, 163, 60, 254, 134, 142, 62, 0, 127, 127, 66, 116, 57, 240, 56, 26, 102, 151, 62, 10, 215, 163, 60, 254, 134, 142, 62, 0, 127, 120, 63, 116, 57, 240, 56, 14, 224, 153, 62, 10, 215, 163, 60, 63, 152, 140, 62, 129, 71, 0, 255, 0, 56, 128, 50, 14, 224, 153, 62, 10, 215, 163, 60, 63, 152, 140, 62, 129, 74, 0, 255, 0, 56, 128, 50, 14, 224, 153, 62, 10, 215, 163, 60, 63, 152, 140, 62, 0, 127, 127, 66, 156, 57, 212, 56, 14, 224, 153, 62, 10, 215, 163, 60, 63, 152, 140, 62, 0, 127, 114, 63, 156, 57, 212, 56, 136, 113, 156, 62, 10, 215, 163, 60, 50, 201, 138, 62, 129, 74, 0, 255, 0, 56, 0, 50, 136, 113, 156, 62, 10, 215, 163, 60, 50, 201, 138, 62, 129, 77, 0, 255, 0, 56, 0, 50, 136, 113, 156, 62, 10, 215, 163, 60, 50, 201, 138, 62, 0, 127, 127, 66, 204, 57, 176, 56, 240, 24, 159, 62, 10, 215, 163, 60, 248, 26, 137, 62, 129, 77, 0, 255, 0, 56, 128, 49, 240, 24, 159, 62, 10, 215, 163, 60, 248, 26, 137, 62, 129, 81, 0, 255, 0, 56, 128, 49, 240, 24, 159, 62, 10, 215, 163, 60, 248, 26, 137, 62, 0, 127, 127, 69, 244, 57, 160, 56, 163, 212, 161, 62, 10, 215, 163, 60, 152, 142, 135, 62, 129, 81, 0, 255, 0, 56, 0, 49, 163, 212, 161, 62, 10, 215, 163, 60, 152, 142, 135, 62, 129, 84, 0, 255, 0, 56, 0, 49, 163, 212, 161, 62, 10, 215, 163, 60, 152, 142, 135, 62, 0, 127, 127, 67, 32, 58, 136, 56, 239, 162, 164, 62, 10, 215, 163, 60, 9, 37, 134, 62, 129, 84, 0, 255, 0, 56, 128, 48, 239, 162, 164, 62, 10, 215, 163, 60, 9, 37, 134, 62, 129, 87, 0, 255, 0, 56, 128, 48, 239, 162, 164, 62, 10, 215, 163, 60, 9, 37, 134, 62, 0, 127, 127, 64, 72, 58, 120, 56, 28, 130, 167, 62, 10, 215, 163, 60, 39, 223, 132, 62, 129, 87, 0, 255, 0, 56, 0, 48, 28, 130, 167, 62, 10, 215, 163, 60, 39, 223, 132, 62, 129, 91, 0, 255, 0, 56, 0, 48, 28, 130, 167, 62, 10, 215, 163, 60, 39, 223, 132, 62, 0, 127, 127, 64, 120, 58, 96, 56, 101, 112, 170, 62, 10, 215, 163, 60, 188, 189, 131, 62, 129, 91, 0, 255, 0, 56, 0, 47, 101, 112, 170, 62, 10, 215, 163, 60, 188, 189, 131, 62, 129, 95, 0, 255, 0, 56, 0, 47, 101, 112, 170, 62, 10, 215, 163, 60, 188, 189, 131, 62, 0, 127, 127, 69, 160, 58, 84, 56, 101, 112, 170, 62, 10, 215, 163, 60, 188, 189, 131, 62, 0, 126, 125, 63, 160, 58, 84, 56, 248, 107, 173, 62, 10, 215, 163, 60, 124, 193, 130, 62, 129, 95, 0, 255, 0, 56, 0, 46, 248, 107, 173, 62, 10, 215, 163, 60, 124, 193, 130, 62, 129, 99, 0, 255, 0, 56, 0, 46, 248, 107, 173, 62, 10, 215, 163, 60, 124, 193, 130, 62, 0, 127, 127, 73, 208, 58, 68, 56, 248, 107, 173, 62, 10, 215, 163, 60, 124, 193, 130, 62, 0, 126, 125, 63, 208, 58, 68, 56, 2, 115, 176, 62, 10, 215, 163, 60, 1, 235, 129, 62, 129, 99, 0, 255, 0, 56, 0, 45, 2, 115, 176, 62, 10, 215, 163, 60, 1, 235, 129, 62, 129, 103, 0, 255, 0, 56, 0, 45, 2, 115, 176, 62, 10, 215, 163, 60, 1, 235, 129, 62, 0, 127, 127, 68, 8, 59, 64, 56, 163, 131, 179, 62, 10, 215, 163, 60, 207, 58, 129, 62, 129, 103, 0, 255, 0, 56, 0, 44, 163, 131, 179, 62, 10, 215, 163, 60, 207, 58, 129, 62, 129, 108, 0, 255, 0, 56, 0, 44, 163, 131, 179, 62, 10, 215, 163, 60, 207, 58, 129, 62, 0, 126, 126, 63, 56, 59, 52, 56, 163, 131, 179, 62, 10, 215, 163, 60, 207, 58, 129, 62, 0, 127, 123, 63, 56, 59, 52, 56, 248, 155, 182, 62, 10, 215, 163, 60, 84, 177, 128, 62, 129, 108, 0, 255, 0, 56, 0, 42, 248, 155, 182, 62, 10, 215, 163, 60, 84, 177, 128, 62, 129, 113, 0, 255, 0, 56, 0, 42, 248, 155, 182, 62, 10, 215, 163, 60, 84, 177, 128, 62, 0, 126, 126, 63, 104, 59, 44, 56, 248, 155, 182, 62, 10, 215, 163, 60, 84, 177, 128, 62, 0, 127, 121, 63, 104, 59, 44, 56, 21, 186, 185, 62, 10, 215, 163, 60, 228, 78, 128, 62, 129, 113, 0, 255, 0, 56, 0, 40, 21, 186, 185, 62, 10, 215, 163, 60, 228, 78, 128, 62, 129, 118, 0, 255, 0, 56, 0, 40, 21, 186, 185, 62, 10, 215, 163, 60, 228, 78, 128, 62, 0, 127, 123, 63, 152, 59, 36, 56, 18, 220, 188, 62, 10, 215, 163, 60, 187, 19, 128, 62, 129, 118, 0, 255, 0, 56, 0, 36, 18, 220, 188, 62, 10, 215, 163, 60, 187, 19, 128, 62, 129, 123, 0, 255, 0, 56, 0, 36, 18, 220, 188, 62, 10, 215, 163, 60, 187, 19, 128, 62, 0, 127, 125, 63, 200, 59, 32, 56, 18, 220, 188, 62, 10, 215, 163, 60, 187, 19, 128, 62, 0, 127, 120, 63, 200, 59, 32, 56, 255, 255, 255, 190, 10, 215, 163, 60, 0, 0, 0, 63, 130, 0, 0, 127, 0, 0, 252, 59, 255, 255, 255, 190, 10, 215, 163, 60, 0, 0, 0, 63, 0, 0, 127, 63, 0, 0, 252, 59, 255, 255, 255, 190, 10, 215, 163, 60, 0, 0, 0, 63, 0, 127, 127, 63, 0, 0, 252, 59, 0, 0, 0, 63, 10, 215, 163, 60, 0, 0, 0, 191, 127, 127, 0, 127, 0, 0, 9, 195, 0, 0, 0, 63, 10, 215, 163, 60, 0, 0, 0, 191, 0, 127, 0, 63, 0, 0, 192, 55, 0, 0, 0, 63, 10, 215, 163, 60, 0, 0, 0, 191, 127, 0, 0, 63, 0, 0, 9, 195 ),
"array_index_data": PoolByteArray( 100, 0, 217, 1, 103, 0, 100, 0, 139, 1, 217, 1, 22, 0, 95, 1, 25, 0, 22, 0, 133, 1, 95, 1, 14, 0, 216, 0, 12, 0, 14, 0, 248, 0, 216, 0, 7, 0, 99, 2, 215, 0, 7, 0, 247, 0, 99, 2, 24, 0, 64, 1, 27, 0, 24, 0, 94, 1, 64, 1, 104, 0, 202, 1, 107, 0, 104, 0, 208, 1, 202, 1, 214, 0, 240, 0, 149, 0, 214, 0, 97, 2, 240, 0, 122, 0, 163, 1, 125, 0, 122, 0, 229, 1, 163, 1, 82, 0, 94, 2, 212, 0, 82, 0, 190, 1, 94, 2, 32, 0, 122, 1, 35, 0, 32, 0, 55, 1, 122, 1, 106, 0, 196, 1, 109, 0, 106, 0, 201, 1, 196, 1, 213, 0, 243, 1, 0, 0, 213, 0, 95, 2, 243, 1, 120, 0, 230, 1, 123, 0, 120, 0, 17, 1, 230, 1, 108, 0, 199, 1, 111, 0, 108, 0, 195, 1, 199, 1, 18, 0, 91, 2, 211, 0, 18, 0, 255, 0, 91, 2, 40, 0, 225, 1, 43, 0, 40, 0, 175, 1, 225, 1, 210, 0, 88, 2, 209, 0, 210, 0, 90, 2, 88, 2, 118, 0, 18, 1, 121, 0, 118, 0, 21, 1, 18, 1, 208, 0, 84, 2, 207, 0, 208, 0, 87, 2, 84, 2, 48, 0, 8, 1, 51, 0, 48, 0, 23, 1, 8, 1, 206, 0, 80, 2, 205, 0, 206, 0, 83, 2, 80, 2, 50, 0, 68, 1, 53, 0, 50, 0, 7, 1, 68, 1, 114, 0, 6, 1, 117, 0, 114, 0, 73, 1, 6, 1, 204, 0, 77, 2, 203, 0, 204, 0, 79, 2, 77, 2, 56, 0, 222, 1, 59, 0, 56, 0, 218, 1, 222, 1, 202, 0, 73, 2, 201, 0, 202, 0, 76, 2, 73, 2, 58, 0, 204, 1, 61, 0, 58, 0, 221, 1, 204, 1, 116, 0, 22, 1, 119, 0, 116, 0, 5, 1, 22, 1, 200, 0, 69, 2, 199, 0, 200, 0, 72, 2, 69, 2, 60, 0, 236, 1, 63, 0, 60, 0, 203, 1, 236, 1, 124, 0, 166, 1, 127, 0, 124, 0, 162, 1, 166, 1, 198, 0, 66, 2, 197, 0, 198, 0, 68, 2, 66, 2, 112, 0, 74, 1, 115, 0, 112, 0, 103, 1, 74, 1, 132, 0, 54, 1, 135, 0, 132, 0, 127, 1, 54, 1, 196, 0, 63, 2, 195, 0, 196, 0, 65, 2, 63, 2, 64, 0, 142, 1, 67, 0, 64, 0, 239, 1, 142, 1, 140, 0, 93, 1, 143, 0, 140, 0, 61, 1, 93, 1, 194, 0, 60, 2, 193, 0, 194, 0, 62, 2, 60, 2, 110, 0, 104, 1, 113, 0, 110, 0, 198, 1, 104, 1, 142, 0, 132, 1, 145, 0, 142, 0, 92, 1, 132, 1, 192, 0, 57, 2, 191, 0, 192, 0, 59, 2, 57, 2, 68, 0, 118, 1, 71, 0, 68, 0, 105, 1, 118, 1, 10, 0, 245, 0, 6, 0, 10, 0, 227, 0, 245, 0, 144, 0, 225, 0, 147, 0, 144, 0, 131, 1, 225, 0, 190, 0, 54, 2, 189, 0, 190, 0, 56, 2, 54, 2, 72, 0, 88, 1, 75, 0, 72, 0, 75, 1, 88, 1, 8, 0, 242, 0, 4, 0, 8, 0, 232, 0, 242, 0, 188, 0, 50, 2, 187, 0, 188, 0, 53, 2, 50, 2, 74, 0, 40, 1, 77, 0, 74, 0, 87, 1, 40, 1, 186, 0, 46, 2, 185, 0, 186, 0, 49, 2, 46, 2, 76, 0, 154, 1, 79, 0, 76, 0, 39, 1, 154, 1, 184, 0, 42, 2, 183, 0, 184, 0, 45, 2, 42, 2, 102, 0, 209, 1, 105, 0, 102, 0, 216, 1, 209, 1, 3, 0, 237, 0, 9, 0, 3, 0, 221, 0, 237, 0, 182, 0, 38, 2, 181, 0, 182, 0, 41, 2, 38, 2, 98, 0, 140, 1, 101, 0, 98, 0, 111, 1, 140, 1, 146, 0, 229, 0, 11, 0, 146, 0, 224, 0, 229, 0, 180, 0, 35, 2, 179, 0, 180, 0, 37, 2, 35, 2, 94, 0, 116, 1, 97, 0, 94, 0, 81, 1, 116, 1, 178, 0, 32, 2, 177, 0, 178, 0, 34, 2, 32, 2, 86, 0, 160, 1, 89, 0, 86, 0, 184, 1, 160, 1, 13, 0, 219, 0, 2, 0, 13, 0, 217, 0, 219, 0, 176, 0, 29, 2, 175, 0, 176, 0, 31, 2, 29, 2, 84, 0, 185, 1, 87, 0, 84, 0, 188, 1, 185, 1, 174, 0, 26, 2, 173, 0, 174, 0, 28, 2, 26, 2, 80, 0, 191, 1, 83, 0, 80, 0, 178, 1, 191, 1, 172, 0, 23, 2, 171, 0, 172, 0, 25, 2, 23, 2, 78, 0, 179, 1, 81, 0, 78, 0, 153, 1, 179, 1, 218, 0, 234, 0, 220, 0, 218, 0, 250, 0, 234, 0, 234, 0, 253, 0, 243, 0, 234, 0, 1, 1, 253, 0, 4, 1, 70, 1, 10, 1, 4, 1, 72, 1, 70, 1, 227, 1, 13, 1, 233, 1, 227, 1, 15, 1, 13, 1, 138, 1, 107, 1, 144, 1, 138, 1, 109, 1, 107, 1, 19, 1, 9, 1, 25, 1, 19, 1, 3, 1, 9, 1, 16, 1, 26, 1, 14, 1, 16, 1, 20, 1, 26, 1, 60, 1, 30, 1, 66, 1, 60, 1, 32, 1, 30, 1, 164, 1, 226, 1, 177, 1, 164, 1, 161, 1, 226, 1, 36, 1, 156, 1, 42, 1, 36, 1, 158, 1, 156, 1, 31, 1, 45, 1, 29, 1, 31, 1, 47, 1, 45, 1, 51, 1, 123, 1, 57, 1, 51, 1, 125, 1, 123, 1, 84, 1, 41, 1, 90, 1, 84, 1, 35, 1, 41, 1, 113, 1, 78, 1, 119, 1, 113, 1, 80, 1, 78, 1, 48, 1, 58, 1, 46, 1, 48, 1, 52, 1, 58, 1, 91, 1, 65, 1, 96, 1, 91, 1, 59, 1, 65, 1, 71, 1, 100, 1, 69, 1, 71, 1, 102, 1, 100, 1, 79, 1, 89, 1, 77, 1, 79, 1, 83, 1, 89, 1, 129, 1, 96, 1, 135, 1, 129, 1, 91, 1, 96, 1, 101, 1, 220, 1, 99, 1, 101, 1, 197, 1, 220, 1, 110, 1, 120, 1, 108, 1, 110, 1, 114, 1, 120, 1, 126, 1, 148, 1, 124, 1, 126, 1, 150, 1, 148, 1, 223, 0, 136, 1, 213, 1, 223, 0, 130, 1, 136, 1, 214, 1, 143, 1, 241, 1, 214, 1, 137, 1, 143, 1, 149, 1, 169, 1, 147, 1, 149, 1, 171, 1, 169, 1, 157, 1, 180, 1, 155, 1, 157, 1, 182, 1, 180, 1, 200, 1, 237, 1, 205, 1, 200, 1, 206, 1, 237, 1, 172, 1, 177, 1, 170, 1, 172, 1, 164, 1, 177, 1, 183, 1, 193, 1, 181, 1, 183, 1, 187, 1, 193, 1, 194, 1, 205, 1, 223, 1, 194, 1, 200, 1, 205, 1, 226, 0, 212, 1, 239, 0, 226, 0, 222, 0, 212, 1, 197, 1, 223, 1, 220, 1, 197, 1, 194, 1, 223, 1, 161, 1, 234, 1, 226, 1, 161, 1, 228, 1, 234, 1, 207, 1, 242, 1, 238, 1, 207, 1, 215, 1, 242, 1, 251, 0, 248, 1, 235, 0, 248, 1, 251, 1, 235, 0, 251, 1, 254, 1, 235, 0, 254, 1, 1, 2, 235, 0, 1, 2, 4, 2, 235, 0, 4, 2, 7, 2, 235, 0, 7, 2, 10, 2, 235, 0, 10, 2, 14, 2, 235, 0, 13, 2, 17, 2, 233, 0, 18, 2, 21, 2, 235, 0, 21, 2, 24, 2, 235, 0, 24, 2, 27, 2, 235, 0, 27, 2, 30, 2, 235, 0, 30, 2, 33, 2, 235, 0, 33, 2, 36, 2, 235, 0, 36, 2, 40, 2, 235, 0, 39, 2, 43, 2, 231, 0, 44, 2, 48, 2, 235, 0, 47, 2, 51, 2, 233, 0, 52, 2, 55, 2, 235, 0, 55, 2, 58, 2, 235, 0, 58, 2, 61, 2, 235, 0, 61, 2, 64, 2, 235, 0, 64, 2, 67, 2, 235, 0, 67, 2, 70, 2, 235, 0, 71, 2, 75, 2, 236, 0, 74, 2, 78, 2, 235, 0, 78, 2, 82, 2, 235, 0, 81, 2, 85, 2, 230, 0, 86, 2, 89, 2, 233, 0, 89, 2, 92, 2, 233, 0, 2, 1, 235, 0, 93, 2, 192, 1, 244, 1, 96, 2, 192, 1, 186, 1, 244, 1, 98, 2, 228, 0, 241, 0, 98, 2, 246, 0, 228, 0, 5, 0, 254, 0, 17, 0, 5, 0, 244, 0, 254, 0, 20, 0, 134, 1, 23, 0, 20, 0, 210, 1, 134, 1, 96, 0, 112, 1, 99, 0, 96, 0, 115, 1, 112, 1, 126, 0, 174, 1, 129, 0, 126, 0, 165, 1, 174, 1, 92, 0, 82, 1, 95, 0, 92, 0, 85, 1, 82, 1, 128, 0, 152, 1, 131, 0, 128, 0, 173, 1, 152, 1, 90, 0, 86, 1, 93, 0, 90, 0, 37, 1, 86, 1, 130, 0, 128, 1, 133, 0, 130, 0, 151, 1, 128, 1, 88, 0, 38, 1, 91, 0, 88, 0, 159, 1, 38, 1, 134, 0, 50, 1, 137, 0, 134, 0, 53, 1, 50, 1, 136, 0, 34, 1, 139, 0, 136, 0, 49, 1, 34, 1, 138, 0, 62, 1, 141, 0, 138, 0, 33, 1, 62, 1, 1, 0, 189, 1, 85, 0, 1, 0, 245, 1, 189, 1, 16, 0, 0, 1, 19, 0, 16, 0, 252, 0, 0, 1, 148, 0, 211, 1, 21, 0, 148, 0, 238, 0, 211, 1, 26, 0, 28, 1, 29, 0, 26, 0, 63, 1, 28, 1, 28, 0, 44, 1, 31, 0, 28, 0, 27, 1, 44, 1, 30, 0, 56, 1, 33, 0, 30, 0, 43, 1, 56, 1, 34, 0, 146, 1, 37, 0, 34, 0, 121, 1, 146, 1, 150, 0, 249, 0, 15, 0, 150, 0, 246, 1, 249, 0, 36, 0, 168, 1, 39, 0, 36, 0, 145, 1, 168, 1, 152, 0, 247, 1, 151, 0, 152, 0, 249, 1, 247, 1, 38, 0, 176, 1, 41, 0, 38, 0, 167, 1, 176, 1, 154, 0, 250, 1, 153, 0, 154, 0, 252, 1, 250, 1, 42, 0, 232, 1, 45, 0, 42, 0, 224, 1, 232, 1, 156, 0, 253, 1, 155, 0, 156, 0, 255, 1, 253, 1, 44, 0, 12, 1, 47, 0, 44, 0, 231, 1, 12, 1, 158, 0, 0, 2, 157, 0, 158, 0, 2, 2, 0, 2, 46, 0, 24, 1, 49, 0, 46, 0, 11, 1, 24, 1, 160, 0, 3, 2, 159, 0, 160, 0, 5, 2, 3, 2, 52, 0, 98, 1, 55, 0, 52, 0, 67, 1, 98, 1, 162, 0, 6, 2, 161, 0, 162, 0, 8, 2, 6, 2, 54, 0, 219, 1, 57, 0, 54, 0, 97, 1, 219, 1, 164, 0, 9, 2, 163, 0, 164, 0, 11, 2, 9, 2, 62, 0, 240, 1, 65, 0, 62, 0, 235, 1, 240, 1, 166, 0, 12, 2, 165, 0, 166, 0, 15, 2, 12, 2, 66, 0, 106, 1, 69, 0, 66, 0, 141, 1, 106, 1, 168, 0, 16, 2, 167, 0, 168, 0, 19, 2, 16, 2, 70, 0, 76, 1, 73, 0, 70, 0, 117, 1, 76, 1, 170, 0, 20, 2, 169, 0, 170, 0, 22, 2, 20, 2 ),
"blend_shape_data": [  ],
"format": 2194711,
"index_count": 960,
"material": ExtResource( 3 ),
"primitive": 4,
"skeleton_aabb": [  ],
"vertex_count": 612
}

[node name="Spatial" type="Spatial"]
script = ExtResource( 1 )

[node name="CSGBox4" type="CSGBox" parent="."]
transform = Transform( 1, 0, 0, 0, 1, 0, 0, 0, 1, 0.33, 0.015, 0 )
visible = false
width = 0.2
height = 0.02
depth = 0.02
material = SubResource( 1 )

[node name="CSGBox3" type="CSGBox" parent="."]
transform = Transform( -4.37114e-08, 0, 1, 0, 1, 0, -1, 0, -4.37114e-08, 0.001, 0.015, 0.33 )
visible = false
width = 0.2
height = 0.02
depth = 0.02
material = SubResource( 1 )

[node name="CSGBox" type="CSGBox" parent="."]
transform = Transform( 0.707107, 0, 0.707107, 0, 1, 0, -0.707107, 0, 0.707107, 0.0673749, 0.015, 0.0597863 )
visible = false
width = 0.2
height = 0.02
depth = 0.02
material = SubResource( 1 )

[node name="CSGBox2" type="CSGBox" parent="."]
transform = Transform( 1, 0, 0, 0, 1, 0, 0, 0, 1, 0.1, 0.01, 0 )
visible = false
width = 0.8
height = 0.02
depth = 0.8
material = SubResource( 2 )

[node name="CSGBox5" type="CSGBox" parent="."]
transform = Transform( 1, 0, 0, 0, 1, 0, 0, 0, 1, 0, 0.01, 0.1 )
visible = false
width = 0.8
height = 0.02
depth = 0.8
material = SubResource( 2 )

[node name="CSGBox6" type="CSGBox" parent="."]
transform = Transform( 1, 0, 0, 0, 1, 0, 0, 0, 1, -0.35, 0.01, -0.35 )
visible = false
width = 0.1
height = 0.02
depth = 0.1
material = SubResource( 2 )

[node name="DirectionalLight" type="DirectionalLight" parent="."]
transform = Transform( 1, 0, 0, 0, -0.0166322, 0.999862, 0, -0.999862, -0.0166322, 0, 1.2504, 0 )
visible = false

[node name="Plane014" type="MeshInstance" parent="."]
transform = Transform( 1, 0, 0, 0, 1, 0, 0, 0, 1, 0, 0.01, 0 )
mesh = SubResource( 3 )
skeleton = NodePath("")
