<?xml version="1.0" encoding="utf-8"?>
<COLLADA xmlns="http://www.collada.org/2005/11/COLLADASchema" version="1.4.1" xmlns:xsi="http://www.w3.org/2001/XMLSchema-instance">
  <asset>
    <contributor>
      <author>Blender User</author>
      <authoring_tool>Blender 2.91.0 commit date:2020-11-25, commit time:08:34, hash:0f45cab862b8</authoring_tool>
    </contributor>
    <created>2021-02-25T15:48:47</created>
    <modified>2021-02-25T15:48:47</modified>
    <unit name="meter" meter="1"/>
    <up_axis>Z_UP</up_axis>
  </asset>
  <library_effects>
    <effect id="Green_Tree-effect">
      <profile_COMMON>
        <technique sid="common">
          <lambert>
            <emission>
              <color sid="emission">0 0 0 1</color>
            </emission>
            <diffuse>
              <color sid="diffuse">0.2576964 0.6859557 0.1616223 1</color>
            </diffuse>
            <index_of_refraction>
              <float sid="ior">1.45</float>
            </index_of_refraction>
          </lambert>
        </technique>
      </profile_COMMON>
    </effect>
  </library_effects>
  <library_images/>
  <library_materials>
    <material id="Green_Tree-material" name="Green_Tree">
      <instance_effect url="#Green_Tree-effect"/>
    </material>
  </library_materials>
  <library_geometries>
    <geometry id="PalmTree_1-mesh" name="PalmTree_1">
      <mesh>
        <source id="PalmTree_1-mesh-positions">
          <float_array id="PalmTree_1-mesh-positions-array" count="288">0.007888376 0.01974797 0.07598209 0.001672863 0.007948815 0.03470993 -0.01396709 0.01392585 0.07590925 -0.004089355 0.006419599 0.03469407 0.006307125 0.03762 0.109879 -0.02169644 0.03010058 0.1097476 0.003420114 0.05304926 0.1265457 -0.01868879 0.04830735 0.12743 -0.007368922 0.07987022 0.1445404 -0.0132656 0.07842206 0.1446958 -0.01128298 0.08553218 0.1473742 0.00167644 0.007962405 9.62556e-4 -0.004085242 0.006435394 9.62556e-4 0.008161783 -0.01943975 0.07951593 0.002309083 7.48594e-4 0.04010856 -0.01368546 -0.01373487 0.08052504 -0.003376424 -0.001013457 0.03979438 0.006587266 -0.04360866 0.1105068 -0.0213713 -0.03623884 0.1117367 0.003677606 -0.06278836 0.1249881 -0.01832312 -0.05836921 0.1267218 -0.007085978 -0.0937618 0.138615 -0.01287966 -0.09252333 0.1390572 -0.01095855 -0.1009311 0.1407088 0.006604552 0.01482552 0.07656824 3.61646e-4 0.002921223 0.03490883 -0.01524257 0.009035408 0.07656824 -0.005400061 0.001394152 0.03490883 0.005084633 0.03293746 0.1108856 -0.02289247 0.0255227 0.1108856 0.002317011 0.04882109 0.1280247 -0.01972758 0.0443108 0.1290847 -0.008274316 0.07635611 0.1464861 -0.01409983 0.07516425 0.1467662 -0.01201933 0.08262807 0.1495916 3.61622e-4 0.002921164 9.62557e-4 -0.005400061 0.001394152 9.62557e-4 0.006604552 -0.0242176 0.07811141 7.62616e-4 -0.00414437 0.03892117 -0.01524257 -0.01851737 0.07912778 -0.004922926 -0.005906462 0.038607 0.005084633 -0.04807204 0.1087167 -0.02289247 -0.04077243 0.1100183 0.002317011 -0.06671756 0.1228016 -0.01972758 -0.06246334 0.1246368 -0.008274316 -0.09706556 0.1361431 -0.01409983 -0.09594136 0.1366281 -0.01201933 -0.1037852 0.1380994 -0.01974797 0.007888376 0.07598209 -0.007948815 0.001672863 0.03470993 -0.01392585 -0.01396709 0.07590925 -0.006419599 -0.004089355 0.03469407 -0.03762 0.006307125 0.109879 -0.03010058 -0.02169644 0.1097476 -0.05304926 0.003420114 0.1265457 -0.04830735 -0.01868885 0.12743 -0.07987022 -0.007368922 0.1445404 -0.07842206 -0.01326566 0.1446958 -0.08553218 -0.01128298 0.1473742 -0.007962405 0.00167644 9.62556e-4 -0.006435394 -0.004085242 9.62556e-4 0.002388417 0.008161783 0.08489137 -0.01056921 0.002309083 0.04255217 -0.003404915 -0.01368546 0.08488345 -0.008779346 -0.003376424 0.04255217 0.02074223 0.006587266 0.1196435 0.01327091 -0.0213713 0.1195606 0.03708219 0.003677606 0.1372665 0.03242737 -0.01832312 0.1381977 0.0651828 -0.007085978 0.1561186 0.06388598 -0.01287966 0.1563366 0.07187324 -0.01095855 0.1594384 -0.01482552 0.006604552 0.07656824 -0.002921223 3.61646e-4 0.03490883 -0.009035408 -0.01524257 0.07656824 -0.001394152 -0.005400061 0.03490883 -0.03293746 0.005084633 0.1108856 -0.0255227 -0.02289247 0.1108856 -0.04882109 0.002317011 0.1280247 -0.0443108 -0.01972758 0.1290847 -0.07635611 -0.008274316 0.1464861 -0.07516425 -0.01409983 0.1467662 -0.08262807 -0.01201933 0.1495916 -0.002921164 3.61622e-4 9.62557e-4 -0.001394152 -0.005400061 9.62557e-4 0.007338643 0.006604552 0.0843473 -0.005543708 7.62616e-4 0.04224205 0.001548528 -0.01524257 0.0843473 -0.00375384 -0.004922926 0.04224205 0.02545052 0.005084633 0.1186646 0.01803576 -0.02289247 0.1186646 0.04133415 0.002317011 0.1358037 0.03682386 -0.01972758 0.1368637 0.06886917 -0.008274316 0.1542651 0.06767731 -0.01409983 0.1545453 0.07514113 -0.01201933 0.1573706</float_array>
          <technique_common>
            <accessor source="#PalmTree_1-mesh-positions-array" count="96" stride="3">
              <param name="X" type="float"/>
              <param name="Y" type="float"/>
              <param name="Z" type="float"/>
            </accessor>
          </technique_common>
        </source>
        <source id="PalmTree_1-mesh-normals">
          <float_array id="PalmTree_1-mesh-normals-array" count="528">-0.249719 0.9403087 -0.2312142 -0.2279127 0.8568719 -0.4624139 -0.1788886 0.7063443 -0.6848918 -0.147439 0.5094719 -0.8477618 -0.1171405 0.3785367 -0.9181438 -0.2561845 0.9666279 4.22093e-4 0.2519735 0.9037495 0.3460438 0.2275766 0.7622185 0.6059967 0.1784877 0.5755016 0.7980852 0.1464078 0.3552948 0.9232174 0.1204753 0.2177843 0.9685328 0.2492327 -0.9403986 0.2313733 0.2271503 -0.8570781 0.4624069 0.1854215 -0.6996278 0.6900289 0.1454162 -0.5117697 0.8467266 0.1220113 -0.3809469 0.9165112 0.2561845 -0.966628 5.0629e-7 0.2848569 -0.8352751 -0.4702895 -0.2271504 -0.7626039 -0.6056714 -0.1854216 -0.5676437 -0.802122 -0.1454185 -0.3551961 -0.9234118 -0.1220063 -0.2141568 -0.9691499 0.9644331 -0.2543788 -0.07183635 -0.9414266 0.2099763 -0.2638671 0.9590997 -0.2305929 0.1641795 -0.9394257 0.1716908 -0.2966509 0.9329915 -0.1761085 0.3138676 -0.9720586 0.2251313 -0.0664696 0.844586 -0.0334115 0.5343765 -0.975596 0.2108405 -0.06130987 0.7665884 0.1483968 0.6247566 -0.9650877 0.2610506 0.02141064 0 -2.06283e-7 -1 -0.96763 0.252373 5.01377e-7 0.9676307 -0.2523704 -4.96595e-7 0.9373001 -0.2334371 -0.2587965 -0.02145147 0.2421691 -0.9699969 -0.9308088 0.3412858 -0.1308396 0.9516177 -0.2638833 -0.1574463 -0.9475443 0.3195946 -0.004403471 0.953531 -0.2598278 -0.1525398 -0.9173361 0.1216325 0.3790778 0.9447491 -0.3277925 0.00117892 -0.8975207 0.007052779 0.4409158 0.887462 -0.4344012 0.1539704 -0.8578934 -0.1345219 0.4959061 -0.9403088 -0.249719 -0.2312143 -0.8568719 -0.2279126 -0.4624139 -0.7063446 -0.1788885 -0.6848915 -0.5094726 -0.1474426 -0.8477607 -0.3785385 -0.1171396 -0.9181432 -0.9666278 -0.2561845 4.22065e-4 -0.9504592 0.2519738 0.1820345 -0.8567557 0.2275768 0.4627944 -0.7066555 0.1784885 0.684675 -0.5118316 0.1464095 0.846518 -0.3844138 0.1204751 0.9152661 0.9403986 0.2492328 0.2313734 0.8570779 0.2271504 0.4624069 0.6996278 0.1854215 0.6900289 0.5117695 0.145417 0.8467265 0.3809468 0.1220075 0.9165117 0.9666278 0.2561846 5.04574e-7 0.9048572 0.2848567 -0.3163704 0.8570782 -0.2271502 -0.4624065 0.6996281 -0.1854214 -0.6900287 0.5117691 -0.1454177 -0.8467267 0.380949 -0.1220074 -0.9165108 0.2543791 0.9644329 -0.07183629 -0.2099769 -0.9414266 -0.2638671 0.2305929 0.9590997 0.1641793 -0.1716906 -0.9394255 -0.2966514 0.1761077 0.9329917 0.3138673 -0.2251314 -0.9720585 -0.06646966 0.0334112 0.8445858 0.5343769 -0.2108398 -0.9755961 -0.06130933 -0.1483961 0.7665908 0.6247538 -0.261052 -0.9650873 0.0214107 2.01822e-7 0 -1 -0.2523728 -0.9676301 4.77719e-7 0.2523704 0.9676308 -4.91422e-7 0.2752396 0.9373001 -0.2138029 -0.06814265 -0.02145236 -0.997445 -0.3130205 -0.9308089 -0.1887145 0.2874232 0.9516177 -0.1086819 -0.313858 -0.9475448 -0.0604335 0.2825705 0.9535306 -0.1045635 -0.1862839 -0.9173365 0.3518413 0.3224985 0.9447484 0.0586971 -0.08433938 -0.8975208 0.4328318 0.4006288 0.8874624 0.2278314 0.04538369 -0.8578937 0.511819 -0.2489773 0.9405654 -0.2309699 -0.2268952 0.8575158 -0.4617199 -0.1847885 0.7002404 -0.6895772 -0.1436024 0.5115661 -0.847159 -0.2565068 0.9665424 3.63049e-4 -0.2848627 0.8353046 0.4702333 0.2271013 0.7625633 0.605741 0.185081 0.5683484 0.8017016 0.1443327 0.3564034 0.9231169 0.2492328 -0.9403985 0.2313734 0.2271502 -0.857078 0.4624069 0.1776151 -0.7073338 0.6842017 0.1454159 -0.5117693 0.8467269 0.2561845 -0.966628 4.94433e-7 -0.2519314 -0.9039711 -0.3454952 -0.2271504 -0.7626039 -0.6056715 -0.1776154 -0.5762526 -0.797738 -0.1454161 -0.3551967 -0.9234119 0.9631099 -0.2596228 -0.07081884 -0.9360324 0.2328552 -0.2638596 0.9630324 -0.2171524 0.1594163 -0.9309135 0.2017663 -0.3044511 0.944474 -0.1428946 0.2958889 -0.9692185 0.2348495 -0.07390099 0.8797501 0.03581744 0.4740856 -0.9722598 0.2210941 -0.07634389 0.7763032 0.24623 0.5802794 -0.965138 0.2608494 0.02159452 0 -2.06283e-7 -1 -0.9676307 0.2523704 8.90151e-7 0.9676308 -0.2523704 -5.08626e-7 0.9384163 -0.2300964 -0.2577415 -0.02145314 0.2421691 -0.9699969 -0.9350641 0.3280974 -0.1341919 0.9534364 -0.2590014 -0.1545231 -0.9500524 0.3119601 -0.009023189 0.9571368 -0.2511073 -0.1443405 -0.902316 0.149495 0.4043231 0.9429533 -0.332817 -0.008481919 -0.8652968 0.04247659 0.499457 0.8816944 -0.4518517 0.1358125 -0.8371429 -0.08514207 0.5403171 -0.9405654 -0.2489772 -0.23097 -0.8575159 -0.2268952 -0.4617198 -0.7002403 -0.1847885 -0.6895773 -0.5115662 -0.143603 -0.847159 -0.9665424 -0.2565069 3.63057e-4 -0.9048764 -0.2848625 0.3163102 -0.8570502 0.2271019 0.4624822 -0.700248 0.1850814 0.6894908 -0.5129064 0.1443323 0.8462241 0.9403986 0.2492329 0.2313733 0.8570781 0.2271503 0.4624068 0.7073338 0.177615 0.6842016 0.51177 0.1454182 0.8467262 0.9666279 0.2561845 4.98928e-7 0.9505812 -0.2519314 -0.1814553 0.8570781 -0.2271503 -0.4624067 0.7073336 -0.1776154 -0.6842018 0.5117701 -0.1454174 -0.8467261 0.2596226 0.96311 -0.0708189 -0.2328552 -0.9360324 -0.2638595 0.2171527 0.9630323 0.1594166 -0.2017665 -0.9309135 -0.304451 0.1428949 0.9444735 0.29589 -0.2348507 -0.9692181 -0.07390117 -0.03581678 0.8797512 0.4740834 -0.2210946 -0.9722597 -0.07634407 -0.2462322 0.7763013 0.580281 -0.2608525 -0.9651371 0.02159529 1.93413e-7 0 -1 -0.2523704 -0.9676308 9.10852e-7 0.2523703 0.9676308 -5.11815e-7 0.2717664 0.938416 -0.2133505 -0.06814545 -0.02145236 -0.9974448 -0.299448 -0.9350641 -0.1896999 0.2821035 0.9534365 -0.106661 -0.3055332 -0.9500523 -0.06364166 0.2725453 0.9571368 -0.0980224 -0.2181446 -0.9023164 0.3718038 0.3291397 0.9429528 0.05007076 -0.1294848 -0.8652986 0.4842438 0.4209954 0.8816964 0.213013 -0.01102018 -0.8371431 0.5468731</float_array>
          <technique_common>
            <accessor source="#PalmTree_1-mesh-normals-array" count="176" stride="3">
              <param name="X" type="float"/>
              <param name="Y" type="float"/>
              <param name="Z" type="float"/>
            </accessor>
          </technique_common>
        </source>
        <vertices id="PalmTree_1-mesh-vertices">
          <input semantic="POSITION" source="#PalmTree_1-mesh-positions"/>
        </vertices>
        <triangles material="Green_Tree-material" count="176">
          <input semantic="VERTEX" source="#PalmTree_1-mesh-vertices" offset="0"/>
          <input semantic="NORMAL" source="#PalmTree_1-mesh-normals" offset="1"/>
          <p>1 0 2 0 0 0 0 1 5 1 4 1 4 2 7 2 6 2 6 3 9 3 8 3 8 4 9 4 10 4 3 5 11 5 12 5 13 6 16 6 15 6 13 7 18 7 17 7 17 8 20 8 19 8 19 9 22 9 21 9 21 10 22 10 23 10 26 11 25 11 24 11 24 12 29 12 26 12 28 13 31 13 29 13 30 14 33 14 31 14 32 15 34 15 33 15 27 16 35 16 25 16 37 17 40 17 38 17 41 18 39 18 37 18 41 19 44 19 42 19 43 20 46 20 44 20 45 21 47 21 46 21 1 22 24 22 25 22 3 23 26 23 2 23 0 24 28 24 24 24 2 25 29 25 5 25 4 26 30 26 28 26 5 27 31 27 7 27 6 28 32 28 30 28 7 29 33 29 9 29 8 30 34 30 32 30 9 31 34 31 10 31 12 32 35 32 36 32 3 33 36 33 27 33 1 34 35 34 11 34 13 35 38 35 14 35 16 36 38 36 40 36 15 37 40 37 39 37 17 38 37 38 13 38 18 39 39 39 42 39 19 40 41 40 17 40 20 41 42 41 44 41 21 42 43 42 19 42 22 43 44 43 46 43 23 44 45 44 21 44 23 45 46 45 47 45 49 46 50 46 48 46 48 47 53 47 52 47 52 48 55 48 54 48 54 49 57 49 56 49 56 50 57 50 58 50 51 51 59 51 60 51 61 52 64 52 63 52 61 53 66 53 65 53 65 54 68 54 67 54 67 55 70 55 69 55 69 56 70 56 71 56 74 57 73 57 72 57 72 58 77 58 74 58 76 59 79 59 77 59 78 60 81 60 79 60 80 61 82 61 81 61 75 62 83 62 73 62 85 63 88 63 86 63 85 64 90 64 87 64 89 65 92 65 90 65 91 66 94 66 92 66 93 67 95 67 94 67 49 68 72 68 73 68 51 69 74 69 50 69 48 70 76 70 72 70 50 71 77 71 53 71 52 72 78 72 76 72 53 73 79 73 55 73 54 74 80 74 78 74 55 75 81 75 57 75 56 76 82 76 80 76 57 77 82 77 58 77 60 78 83 78 84 78 51 79 84 79 75 79 49 80 83 80 59 80 61 81 86 81 62 81 64 82 86 82 88 82 63 83 88 83 87 83 65 84 85 84 61 84 66 85 87 85 90 85 67 86 89 86 65 86 68 87 90 87 92 87 69 88 91 88 67 88 70 89 92 89 94 89 71 90 93 90 69 90 71 91 94 91 95 91 1 92 3 92 2 92 0 93 2 93 5 93 4 94 5 94 7 94 6 95 7 95 9 95 3 96 1 96 11 96 13 97 14 97 16 97 13 98 15 98 18 98 17 99 18 99 20 99 19 100 20 100 22 100 26 101 27 101 25 101 24 102 28 102 29 102 28 103 30 103 31 103 30 104 32 104 33 104 27 105 36 105 35 105 37 106 39 106 40 106 41 107 42 107 39 107 41 108 43 108 44 108 43 109 45 109 46 109 1 110 0 110 24 110 3 111 27 111 26 111 0 112 4 112 28 112 2 113 26 113 29 113 4 114 6 114 30 114 5 115 29 115 31 115 6 116 8 116 32 116 7 117 31 117 33 117 8 118 10 118 34 118 9 119 33 119 34 119 12 120 11 120 35 120 3 121 12 121 36 121 1 122 25 122 35 122 13 123 37 123 38 123 16 124 14 124 38 124 15 125 16 125 40 125 17 126 41 126 37 126 18 127 15 127 39 127 19 128 43 128 41 128 20 129 18 129 42 129 21 130 45 130 43 130 22 131 20 131 44 131 23 132 47 132 45 132 23 133 22 133 46 133 49 134 51 134 50 134 48 135 50 135 53 135 52 136 53 136 55 136 54 137 55 137 57 137 51 138 49 138 59 138 61 139 62 139 64 139 61 140 63 140 66 140 65 141 66 141 68 141 67 142 68 142 70 142 74 143 75 143 73 143 72 144 76 144 77 144 76 145 78 145 79 145 78 146 80 146 81 146 75 147 84 147 83 147 85 148 87 148 88 148 85 149 89 149 90 149 89 150 91 150 92 150 91 151 93 151 94 151 49 152 48 152 72 152 51 153 75 153 74 153 48 154 52 154 76 154 50 155 74 155 77 155 52 156 54 156 78 156 53 157 77 157 79 157 54 158 56 158 80 158 55 159 79 159 81 159 56 160 58 160 82 160 57 161 81 161 82 161 60 162 59 162 83 162 51 163 60 163 84 163 49 164 73 164 83 164 61 165 85 165 86 165 64 166 62 166 86 166 63 167 64 167 88 167 65 168 89 168 85 168 66 169 63 169 87 169 67 170 91 170 89 170 68 171 66 171 90 171 69 172 93 172 91 172 70 173 68 173 92 173 71 174 95 174 93 174 71 175 70 175 94 175</p>
        </triangles>
      </mesh>
    </geometry>
    <geometry id="Apple_1-mesh" name="Apple_1">
      <mesh>
        <source id="Apple_1-mesh-positions">
          <float_array id="Apple_1-mesh-positions-array" count="132">-0.001928091 0.02007371 0.1063897 -3.93114e-4 0.005102157 -3.44753e-4 -0.01945835 -0.003109633 0.1063938 -0.005016207 -0.001012027 -3.44751e-4 -0.01733291 0.03683376 0.1930124 -0.03978133 0.007144927 0.1930124 -0.04431563 0.05212402 0.2304748 -0.06184542 0.02894026 0.2304748 -0.0953018 0.07727122 0.2400975 -0.09993422 0.07114475 0.2400975 -0.1062625 0.08074426 0.240037 0.003406465 0.01604008 0.1077341 0.005016148 0.001012027 3.44751e-4 -0.01412326 -0.007143616 0.1077341 3.93052e-4 -0.005102097 3.44753e-4 -0.01249212 0.03317356 0.1961972 -0.03494054 0.003484725 0.1961972 -0.04114443 0.04972618 0.2361608 -0.05867421 0.02654242 0.2361608 -0.09459012 0.07673311 0.2470383 -0.09922254 0.07060664 0.2470383 -0.1062625 0.08074426 0.2470383 0.0109505 -0.01693385 0.1063897 0.002697229 -0.004348635 -3.44753e-4 0.01584386 0.0117163 0.1063938 0.00398761 0.003207206 -3.44751e-4 0.03234046 -0.02472341 0.1930124 0.03860604 0.01196575 0.1930124 0.06333279 -0.02587944 0.2304748 0.06822556 0.002770841 0.2304748 0.1201718 -0.02473914 0.2400975 0.1214647 -0.01716804 0.2400975 0.131501 -0.02277791 0.240037 0.004357993 -0.01580804 0.1077341 -0.003987491 -0.003207087 3.44751e-4 0.00925076 0.01284223 0.1077341 -0.00269711 0.004348814 3.44753e-4 0.0263583 -0.02370184 0.1961972 0.03262388 0.01298737 0.1961972 0.05941385 -0.0252102 0.2361608 0.06430661 0.003440082 0.2361608 0.1192923 -0.02458894 0.2470383 0.1205853 -0.01701784 0.2470383 0.131501 -0.02277791 0.2470383</float_array>
          <technique_common>
            <accessor source="#Apple_1-mesh-positions-array" count="44" stride="3">
              <param name="X" type="float"/>
              <param name="Y" type="float"/>
              <param name="Z" type="float"/>
            </accessor>
          </technique_common>
        </source>
        <source id="Apple_1-mesh-normals">
          <float_array id="Apple_1-mesh-normals-array" count="468">-0.7939927 0.6003584 -0.09563231 -0.793989 0.6003634 -0.0956313 -0.7939888 0.6003637 -0.09563124 -0.772262 0.5839121 -0.250316 -0.7722568 0.5839179 -0.2503188 -0.7722644 0.5839095 -0.2503148 -0.6165902 0.4662186 -0.6343948 -0.6165903 0.4662186 -0.6343948 -0.6165904 0.4662185 -0.6343947 -0.1354692 0.1024315 -0.9854725 -0.1354692 0.1024317 -0.9854725 -0.1354692 0.1024317 -0.9854724 0.004452943 -0.003365159 -0.9999845 0.793972 -0.6003412 0.09591221 0.793972 -0.600341 0.09591221 0.7939719 -0.6003412 0.09591215 0.7719516 -0.583691 0.2517849 0.7719516 -0.5836909 0.2517849 0.7719517 -0.583691 0.2517849 0.6162857 -0.4659882 0.6348598 0.6162859 -0.4659882 0.6348597 0.6162855 -0.4659884 0.6348599 0.1448103 -0.1094948 0.9833825 0.144811 -0.1094949 0.9833822 0.1448101 -0.1094948 0.9833825 -5.16875e-6 0 1 0.6157265 0.7815673 -0.1001669 0.6085227 0.7870035 -0.1016159 0.6082099 0.7872372 -0.1016784 0.08068394 -0.06100732 -0.994871 0.08068394 -0.06100732 -0.994871 0.08068394 -0.06100732 -0.994871 -0.5855041 -0.8051458 -0.09447383 -0.5922459 -0.8000382 -0.09583175 -0.5852268 -0.8053538 -0.09441804 0.6190403 0.7843045 -0.04069083 0.6101431 0.7910408 -0.04449695 0.6096621 0.7914001 -0.04470157 -0.5859459 -0.8093281 -0.04069042 -0.5948703 -0.8025888 -0.0445047 -0.5855318 -0.8096365 -0.04051417 0.5493541 0.8341603 0.04885554 0.5671384 0.8203826 0.0729838 0.5691787 0.8187123 0.07580143 -0.6529007 -0.7558662 0.04885637 -0.6347988 -0.769223 0.07298403 -0.6544445 -0.7546633 0.04675126 0.4649337 0.8790838 0.1051115 0.4473771 0.8938463 0.02987736 0.4660393 0.8778643 0.11028 -0.7191275 -0.6868827 0.1051087 -0.7381184 -0.6740093 0.02987813 -0.7394811 -0.6727614 0.02366459 0.3174829 0.947878 0.02705842 0.309981 0.9506422 0.01382994 0.3247333 0.9449609 0.03996634 -0.8255001 -0.5637531 0.02705866 -0.8302037 -0.5572887 0.01383042 -0.834908 -0.5503898 7.23093e-7 0.9812114 -0.1675673 -0.09563231 0.9812105 -0.167573 -0.09563136 0.9812104 -0.1675734 -0.0956313 0.9543499 -0.1629673 -0.250316 0.9543478 -0.1629751 -0.2503189 0.9543508 -0.1629638 -0.2503147 0.7619781 -0.1301264 -0.6343947 0.7619782 -0.1301263 -0.6343947 0.7619783 -0.1301262 -0.6343945 0.1674116 -0.0285896 -0.9854725 0.1674115 -0.02858936 -0.9854726 0.1674114 -0.0285893 -0.9854726 -0.005499064 9.39235e-4 -0.9999845 -0.9811851 0.1675612 0.09591221 -0.9811851 0.167561 0.09591221 -0.9811851 0.1675612 0.09591221 -0.9539725 0.1629139 0.251785 -0.9539725 0.1629139 0.2517849 -0.9539725 0.1629139 0.251785 -0.7616016 0.1300621 0.6348598 -0.7616016 0.1300621 0.6348597 -0.7616015 0.1300621 0.6348599 -0.1789557 0.03056097 0.9833825 -0.1789564 0.03056067 0.9833822 -0.1789556 0.03056102 0.9833824 0 0 1 -0.1869298 -0.9772533 -0.1001669 -0.178032 -0.9787639 -0.1016159 -0.1776466 -0.9788275 -0.1016784 -0.09970879 0.01702785 -0.994871 -0.09970879 0.01702785 -0.994871 -0.09970873 0.01702785 -0.994871 0.1492466 0.9842765 -0.09447383 0.1575824 0.9828449 -0.09583181 0.1489047 0.9843336 -0.09441804 -0.1886104 -0.9812086 -0.04069083 -0.1776123 -0.983094 -0.04449701 -0.17702 -0.9831917 -0.04470157 0.1477133 0.9881929 -0.04069042 0.1587381 0.9863172 -0.04450488 0.1472038 0.9882761 -0.04051411 -0.1037998 -0.9933976 0.04885667 -0.1259287 -0.989351 0.07298326 -0.1285087 -0.9888073 0.07580077 0.2317631 0.9715447 0.04885613 0.2095438 0.9750717 0.07298421 0.2336874 0.9711872 0.04675102 -0.008177995 -0.9944271 0.1051092 0.01420587 -0.9994527 0.0298773 -0.009720981 -0.9938533 0.1102774 0.3223055 0.9407823 0.1051093 0.3450902 0.9380939 0.02987807 0.3468743 0.9376131 0.02366435 0.1543936 -0.9876388 0.02705794 0.1623253 -0.9866404 0.01382976 0.1466149 -0.988386 0.03996574 0.4734113 0.8804259 0.02705842 0.4805611 0.8768522 0.01382994 0.4879115 0.8728931 0 -0.7939934 0.6003575 -0.09563255 -0.7722548 0.58392 -0.2503198 -0.6165901 0.4662187 -0.6343948 -0.1354692 0.1024314 -0.9854725 0.7939721 -0.600341 0.09591221 0.7719517 -0.5836909 0.2517849 0.6162861 -0.465988 0.6348596 0.1448113 -0.1094951 0.9833822 0.6160205 0.7813433 -0.1001074 0.080684 -0.06100726 -0.994871 -0.5925368 -0.7998157 -0.0958904 0.619449 0.7839908 -0.040515 -0.5953483 -0.8022229 -0.0447098 0.547776 0.8353179 0.04675036 -0.6326358 -0.7707309 0.07580161 0.4458054 0.8948171 0.0236634 -0.7176527 -0.6876145 0.1102769 0.3020609 0.9532887 0 -0.8207179 -0.5699341 0.0399664 0.9812116 -0.1675661 -0.09563255 0.954347 -0.162978 -0.25032 0.761978 -0.1301264 -0.6343948 0.1674117 -0.02858966 -0.9854725 -0.9811851 0.167561 0.09591221 -0.9539725 0.1629139 0.2517849 -0.7616018 0.1300621 0.6348596 -0.1789566 0.03056055 0.9833822 -0.1872938 -0.9771897 -0.1001074 -0.09970879 0.01702791 -0.994871 0.157943 0.9827813 -0.0958904 -0.1891177 -0.9811184 -0.040515 0.1593309 0.9862124 -0.04470998 -0.1018661 -0.993699 0.04675167 0.2069294 0.975415 0.07580184 0.01604825 -0.9995912 0.02366358 0.3206594 0.9407531 0.1102775 0.170574 -0.9853449 0 0.4663221 0.8837118 0.03996634</float_array>
          <technique_common>
            <accessor source="#Apple_1-mesh-normals-array" count="156" stride="3">
              <param name="X" type="float"/>
              <param name="Y" type="float"/>
              <param name="Z" type="float"/>
            </accessor>
          </technique_common>
        </source>
        <vertices id="Apple_1-mesh-vertices">
          <input semantic="POSITION" source="#Apple_1-mesh-positions"/>
        </vertices>
        <triangles material="Green_Tree-material" count="80">
          <input semantic="VERTEX" source="#Apple_1-mesh-vertices" offset="0"/>
          <input semantic="NORMAL" source="#Apple_1-mesh-normals" offset="1"/>
          <p>1 0 2 1 0 2 2 3 4 4 0 5 4 6 7 7 6 8 6 9 9 10 8 11 8 12 9 12 10 12 13 13 12 14 11 15 11 16 16 17 13 18 15 19 18 20 16 21 17 22 20 23 18 24 19 25 21 25 20 25 0 26 12 27 1 28 1 29 14 30 3 31 2 32 14 33 13 34 4 35 11 36 0 37 5 38 13 39 16 40 6 41 15 42 4 43 7 44 16 45 18 46 6 47 19 48 17 49 7 50 20 51 9 52 8 53 21 54 19 55 9 56 21 57 10 58 23 59 24 60 22 61 24 62 26 63 22 64 26 65 29 66 28 67 28 68 31 69 30 70 30 71 31 71 32 71 35 72 34 73 33 74 33 75 38 76 35 77 37 78 40 79 38 80 39 81 42 82 40 83 41 84 43 84 42 84 22 85 34 86 23 87 25 88 34 89 36 90 24 91 36 92 35 93 26 94 33 95 22 96 27 97 35 98 38 99 28 100 37 101 26 102 29 103 38 104 40 105 28 106 41 107 39 108 29 109 42 110 31 111 30 112 43 113 41 114 31 115 43 116 32 117 1 0 3 118 2 1 2 3 5 119 4 4 4 6 5 120 7 7 6 9 7 121 9 10 13 13 14 122 12 14 11 16 15 123 16 17 15 19 17 124 18 20 17 22 19 125 20 23 0 26 11 126 12 27 1 29 12 127 14 30 2 32 3 128 14 33 4 35 15 129 11 36 5 38 2 130 13 39 6 41 17 131 15 42 7 44 5 132 16 45 6 47 8 133 19 48 7 50 18 134 20 51 8 53 10 135 21 54 9 56 20 136 21 57 23 59 25 137 24 60 24 62 27 138 26 63 26 65 27 139 29 66 28 68 29 140 31 69 35 72 36 141 34 73 33 75 37 142 38 76 37 78 39 143 40 79 39 81 41 144 42 82 22 85 33 145 34 86 25 88 23 146 34 89 24 91 25 147 36 92 26 94 37 148 33 95 27 97 24 149 35 98 28 100 39 150 37 101 29 103 27 151 38 104 28 106 30 152 41 107 29 109 40 153 42 110 30 112 32 154 43 113 31 115 42 155 43 116</p>
        </triangles>
      </mesh>
    </geometry>
  </library_geometries>
  <library_visual_scenes>
    <visual_scene id="Scene" name="Scene">
      <node id="PalmTree_1" name="PalmTree_1" type="NODE">
        <matrix sid="transform">1 0 0 0.004250251 0 1 0 0 0 0 1 0 0 0 0 1</matrix>
        <instance_geometry url="#PalmTree_1-mesh" name="PalmTree_1">
          <bind_material>
            <technique_common>
              <instance_material symbol="Green_Tree-material" target="#Green_Tree-material"/>
            </technique_common>
          </bind_material>
        </instance_geometry>
      </node>
      <node id="Apple_1" name="Apple_1" type="NODE">
        <matrix sid="transform">1 0 0 0 0 1 1.62921e-7 0 0 -1.62921e-7 1 0 0 0 0 1</matrix>
        <instance_geometry url="#Apple_1-mesh" name="Apple_1">
          <bind_material>
            <technique_common>
              <instance_material symbol="Green_Tree-material" target="#Green_Tree-material"/>
            </technique_common>
          </bind_material>
        </instance_geometry>
      </node>
    </visual_scene>
  </library_visual_scenes>
  <scene>
    <instance_visual_scene url="#Scene"/>
  </scene>
</COLLADA>